specific,generic
mia,mio
tua,tuo
sua,suo
nostra,nostro
vostra,vostro
miei,mio
tuoi,tuo
suoi,suo
nostri,nostro
vostri,vostro
mie,mio
tue,tuo
sue,suo
nostre,nostro
vostre,vostro
quanta,quanto
quanti,quanto
quante,quanto
quali,quale
qual,quale
questo,quello
questa,quello
quella,quello
questi,quello
queste,quello
quelli,quello
quelle,quello
