conjugation,infinitive
nevicare,nevicare
nevicando,nevicare
nevicante,nevicare
nevicato,nevicare
&#8212;,nevicare
&#8212;,nevicare
nevica,nevicare
&#8212;,nevicare
&#8212;,nevicare
nevicano,nevicare
&#8212;,nevicare
&#8212;,nevicare
nevicava,nevicare
&#8212;,nevicare
&#8212;,nevicare
nevicavano,nevicare
&#8212;,nevicare
&#8212;,nevicare
nevicò,nevicare
&#8212;,nevicare
&#8212;,nevicare
nevicarono,nevicare
&#8212;,nevicare
&#8212;,nevicare
nevicherà,nevicare
&#8212;,nevicare
&#8212;,nevicare
nevicheranno,nevicare
&#8212;,nevicare
&#8212;,nevicare
nevicherebbe,nevicare
&#8212;,nevicare
&#8212;,nevicare
nevicherebbero,nevicare
&#8212;,nevicare
&#8212;,nevicare
nevichi,nevicare
&#8212;,nevicare
&#8212;,nevicare
nevichino,nevicare
&#8212;,nevicare
&#8212;,nevicare
nevicasse,nevicare
&#8212;,nevicare
&#8212;,nevicare
nevicassero,nevicare
&#8212;,nevicare
nevichi,nevicare
&#8212;,nevicare
&#8212;,nevicare
nevichino,nevicare
nascere,nascere
nascendo,nascere
nascente,nascere
nato,nascere
nasco,nascere
nasci,nascere
nasce,nascere
nasciamo,nascere
nascete,nascere
nascono,nascere
nascevo,nascere
nascevi,nascere
nasceva,nascere
nascevamo,nascere
nascevate,nascere
nascevano,nascere
nacqui,nascere
nascesti,nascere
nacque,nascere
nascemmo,nascere
nasceste,nascere
nacquero,nascere
nascerò,nascere
nascerai,nascere
nascerà,nascere
nasceremo,nascere
nascerete,nascere
nasceranno,nascere
nascerei,nascere
nasceresti,nascere
nascerebbe,nascere
nasceremmo,nascere
nascereste,nascere
nascerebbero,nascere
nasca,nascere
nasca,nascere
nasca,nascere
nasciamo,nascere
nasciate,nascere
nascano,nascere
nascessi,nascere
nascessi,nascere
nascesse,nascere
nascessimo,nascere
nasceste,nascere
nascessero,nascere
nasci,nascere
nascere,nascere
nasca,nascere
nasciamo,nascere
nascete,nascere
nascano,nascere
nullificare,nullificare
nullificando,nullificare
nullificante,nullificare
nullificato,nullificare
nullifico,nullificare
nullifichi,nullificare
nullifica,nullificare
nullifichiamo,nullificare
nullificate,nullificare
nullificano,nullificare
nullificavo,nullificare
nullificavi,nullificare
nullificava,nullificare
nullificavamo,nullificare
nullificavate,nullificare
nullificavano,nullificare
nullificai,nullificare
nullificasti,nullificare
nullificò,nullificare
nullificammo,nullificare
nullificaste,nullificare
nullificarono,nullificare
nullificherò,nullificare
nullificherai,nullificare
nullificherà,nullificare
nullificheremo,nullificare
nullificherete,nullificare
nullificheranno,nullificare
nullificherei,nullificare
nullificheresti,nullificare
nullificherebbe,nullificare
nullificheremmo,nullificare
nullifichereste,nullificare
nullificherebbero,nullificare
nullifichi,nullificare
nullifichi,nullificare
nullifichi,nullificare
nullifichiamo,nullificare
nullifichiate,nullificare
nullifichino,nullificare
nullificassi,nullificare
nullificassi,nullificare
nullificasse,nullificare
nullificassimo,nullificare
nullificaste,nullificare
nullificassero,nullificare
nullifica,nullificare
nullificare,nullificare
nullifichi,nullificare
nullifichiamo,nullificare
nullificate,nullificare
nullifichino,nullificare
ninnare,ninnare
ninnando,ninnare
ninnante,ninnare
ninnato,ninnare
ninno,ninnare
ninni,ninnare
ninna,ninnare
ninniamo,ninnare
ninnate,ninnare
ninnano,ninnare
ninnavo,ninnare
ninnavi,ninnare
ninnava,ninnare
ninnavamo,ninnare
ninnavate,ninnare
ninnavano,ninnare
ninnai,ninnare
ninnasti,ninnare
ninnò,ninnare
ninnammo,ninnare
ninnaste,ninnare
ninnarono,ninnare
ninnerò,ninnare
ninnerai,ninnare
ninnerà,ninnare
ninneremo,ninnare
ninnerete,ninnare
ninneranno,ninnare
ninnerei,ninnare
ninneresti,ninnare
ninnerebbe,ninnare
ninneremmo,ninnare
ninnereste,ninnare
ninnerebbero,ninnare
ninni,ninnare
ninni,ninnare
ninni,ninnare
ninniamo,ninnare
ninniate,ninnare
ninnino,ninnare
ninnassi,ninnare
ninnassi,ninnare
ninnasse,ninnare
ninnassimo,ninnare
ninnaste,ninnare
ninnassero,ninnare
ninna,ninnare
ninnare,ninnare
ninni,ninnare
ninniamo,ninnare
ninnate,ninnare
ninnino,ninnare
nominalizzare,nominalizzare
nominalizzando,nominalizzare
nominalizzante,nominalizzare
nominalizzato,nominalizzare
nominalizzo,nominalizzare
nominalizzi,nominalizzare
nominalizza,nominalizzare
nominalizziamo,nominalizzare
nominalizzate,nominalizzare
nominalizzano,nominalizzare
nominalizzavo,nominalizzare
nominalizzavi,nominalizzare
nominalizzava,nominalizzare
nominalizzavamo,nominalizzare
nominalizzavate,nominalizzare
nominalizzavano,nominalizzare
nominalizzai,nominalizzare
nominalizzasti,nominalizzare
nominalizzò,nominalizzare
nominalizzammo,nominalizzare
nominalizzaste,nominalizzare
nominalizzarono,nominalizzare
nominalizzerò,nominalizzare
nominalizzerai,nominalizzare
nominalizzerà,nominalizzare
nominalizzeremo,nominalizzare
nominalizzerete,nominalizzare
nominalizzeranno,nominalizzare
nominalizzerei,nominalizzare
nominalizzeresti,nominalizzare
nominalizzerebbe,nominalizzare
nominalizzeremmo,nominalizzare
nominalizzereste,nominalizzare
nominalizzerebbero,nominalizzare
nominalizzi,nominalizzare
nominalizzi,nominalizzare
nominalizzi,nominalizzare
nominalizziamo,nominalizzare
nominalizziate,nominalizzare
nominalizzino,nominalizzare
nominalizzassi,nominalizzare
nominalizzassi,nominalizzare
nominalizzasse,nominalizzare
nominalizzassimo,nominalizzare
nominalizzaste,nominalizzare
nominalizzassero,nominalizzare
nominalizza,nominalizzare
nominalizzare,nominalizzare
nominalizzi,nominalizzare
nominalizziamo,nominalizzare
nominalizzate,nominalizzare
nominalizzino,nominalizzare
ninnolare,ninnolare
ninnolando,ninnolare
ninnolante,ninnolare
ninnolato,ninnolare
ninnolo,ninnolare
ninnoli,ninnolare
ninnola,ninnolare
ninnoliamo,ninnolare
ninnolate,ninnolare
ninnolano,ninnolare
ninnolavo,ninnolare
ninnolavi,ninnolare
ninnolava,ninnolare
ninnolavamo,ninnolare
ninnolavate,ninnolare
ninnolavano,ninnolare
ninnolai,ninnolare
ninnolasti,ninnolare
ninnolò,ninnolare
ninnolammo,ninnolare
ninnolaste,ninnolare
ninnolarono,ninnolare
ninnolerò,ninnolare
ninnolerai,ninnolare
ninnolerà,ninnolare
ninnoleremo,ninnolare
ninnolerete,ninnolare
ninnoleranno,ninnolare
ninnolerei,ninnolare
ninnoleresti,ninnolare
ninnolerebbe,ninnolare
ninnoleremmo,ninnolare
ninnolereste,ninnolare
ninnolerebbero,ninnolare
ninnoli,ninnolare
ninnoli,ninnolare
ninnoli,ninnolare
ninnoliamo,ninnolare
ninnoliate,ninnolare
ninnolino,ninnolare
ninnolassi,ninnolare
ninnolassi,ninnolare
ninnolasse,ninnolare
ninnolassimo,ninnolare
ninnolaste,ninnolare
ninnolassero,ninnolare
ninnola,ninnolare
ninnolare,ninnolare
ninnoli,ninnolare
ninnoliamo,ninnolare
ninnolate,ninnolare
ninnolino,ninnolare
nominare,nominare
nominando,nominare
nominante,nominare
nominato,nominare
nomino,nominare
nomini,nominare
nomina,nominare
nominiamo,nominare
nominate,nominare
nominano,nominare
nominavo,nominare
nominavi,nominare
nominava,nominare
nominavamo,nominare
nominavate,nominare
nominavano,nominare
nominai,nominare
nominasti,nominare
nominò,nominare
nominammo,nominare
nominaste,nominare
nominarono,nominare
nominerò,nominare
nominerai,nominare
nominerà,nominare
nomineremo,nominare
nominerete,nominare
nomineranno,nominare
nominerei,nominare
nomineresti,nominare
nominerebbe,nominare
nomineremmo,nominare
nominereste,nominare
nominerebbero,nominare
nomini,nominare
nomini,nominare
nomini,nominare
nominiamo,nominare
nominiate,nominare
nominino,nominare
nominassi,nominare
nominassi,nominare
nominasse,nominare
nominassimo,nominare
nominaste,nominare
nominassero,nominare
nomina,nominare
nominare,nominare
nomini,nominare
nominiamo,nominare
nominate,nominare
nominino,nominare
noverare,noverare
noverando,noverare
noverante,noverare
noverato,noverare
novero,noverare
noveri,noverare
novera,noverare
noveriamo,noverare
noverate,noverare
noverano,noverare
noveravo,noverare
noveravi,noverare
noverava,noverare
noveravamo,noverare
noveravate,noverare
noveravano,noverare
noverai,noverare
noverasti,noverare
noverò,noverare
noverammo,noverare
noveraste,noverare
noverarono,noverare
novererò,noverare
novererai,noverare
novererà,noverare
novereremo,noverare
novererete,noverare
novereranno,noverare
novererei,noverare
novereresti,noverare
novererebbe,noverare
novereremmo,noverare
noverereste,noverare
novererebbero,noverare
noveri,noverare
noveri,noverare
noveri,noverare
noveriamo,noverare
noveriate,noverare
noverino,noverare
noverassi,noverare
noverassi,noverare
noverasse,noverare
noverassimo,noverare
noveraste,noverare
noverassero,noverare
novera,noverare
noverare,noverare
noveri,noverare
noveriamo,noverare
noverate,noverare
noverino,noverare
nereggiare,nereggiare
nereggiando,nereggiare
nereggiante,nereggiare
nereggiato,nereggiare
nereggio,nereggiare
nereggi,nereggiare
nereggia,nereggiare
nereggiamo,nereggiare
nereggiate,nereggiare
nereggiano,nereggiare
nereggiavo,nereggiare
nereggiavi,nereggiare
nereggiava,nereggiare
nereggiavamo,nereggiare
nereggiavate,nereggiare
nereggiavano,nereggiare
nereggiai,nereggiare
nereggiasti,nereggiare
nereggiò,nereggiare
nereggiammo,nereggiare
nereggiaste,nereggiare
nereggiarono,nereggiare
nereggerò,nereggiare
nereggerai,nereggiare
nereggerà,nereggiare
nereggeremo,nereggiare
nereggerete,nereggiare
nereggeranno,nereggiare
nereggerei,nereggiare
nereggeresti,nereggiare
nereggerebbe,nereggiare
nereggeremmo,nereggiare
nereggereste,nereggiare
nereggerebbero,nereggiare
nereggi,nereggiare
nereggi,nereggiare
nereggi,nereggiare
nereggiamo,nereggiare
nereggiate,nereggiare
nereggino,nereggiare
nereggiassi,nereggiare
nereggiassi,nereggiare
nereggiasse,nereggiare
nereggiassimo,nereggiare
nereggiaste,nereggiare
nereggiassero,nereggiare
nereggia,nereggiare
nereggiare,nereggiare
nereggi,nereggiare
nereggiamo,nereggiare
nereggiate,nereggiare
nereggino,nereggiare
nitrire,nitrire
nitrendo,nitrire
nitrente,nitrire
nitrito,nitrire
nitrisco,nitrire
nitrisci,nitrire
nitrisce,nitrire
nitriamo,nitrire
nitrite,nitrire
nitriscono,nitrire
nitrivo,nitrire
nitrivi,nitrire
nitriva,nitrire
nitrivamo,nitrire
nitrivate,nitrire
nitrivano,nitrire
nitrii,nitrire
nitristi,nitrire
nitrì,nitrire
nitrimmo,nitrire
nitriste,nitrire
nitrirono,nitrire
nitrirò,nitrire
nitrirai,nitrire
nitrirà,nitrire
nitriremo,nitrire
nitrirete,nitrire
nitriranno,nitrire
nitrirei,nitrire
nitriresti,nitrire
nitrirebbe,nitrire
nitriremmo,nitrire
nitrireste,nitrire
nitrirebbero,nitrire
nitrisca,nitrire
nitrisca,nitrire
nitrisca,nitrire
nitriamo,nitrire
nitriate,nitrire
nitriscano,nitrire
nitrissi,nitrire
nitrissi,nitrire
nitrisse,nitrire
nitrissimo,nitrire
nitriste,nitrire
nitrissero,nitrire
nitrisci,nitrire
nitrire,nitrire
nitrisca,nitrire
nitriamo,nitrire
nitrite,nitrire
nitriscano,nitrire
nicchiare,nicchiare
nicchiando,nicchiare
nicchiante,nicchiare
nicchiato,nicchiare
nicchio,nicchiare
nicchi,nicchiare
nicchia,nicchiare
nicchiamo,nicchiare
nicchiate,nicchiare
nicchiano,nicchiare
nicchiavo,nicchiare
nicchiavi,nicchiare
nicchiava,nicchiare
nicchiavamo,nicchiare
nicchiavate,nicchiare
nicchiavano,nicchiare
nicchiai,nicchiare
nicchiasti,nicchiare
nicchiò,nicchiare
nicchiammo,nicchiare
nicchiaste,nicchiare
nicchiarono,nicchiare
nicchierò,nicchiare
nicchierai,nicchiare
nicchierà,nicchiare
nicchieremo,nicchiare
nicchierete,nicchiare
nicchieranno,nicchiare
nicchierei,nicchiare
nicchieresti,nicchiare
nicchierebbe,nicchiare
nicchieremmo,nicchiare
nicchiereste,nicchiare
nicchierebbero,nicchiare
nicchi,nicchiare
nicchi,nicchiare
nicchi,nicchiare
nicchiamo,nicchiare
nicchiate,nicchiare
nicchino,nicchiare
nicchiassi,nicchiare
nicchiassi,nicchiare
nicchiasse,nicchiare
nicchiassimo,nicchiare
nicchiaste,nicchiare
nicchiassero,nicchiare
nicchia,nicchiare
nicchiare,nicchiare
nicchi,nicchiare
nicchiamo,nicchiare
nicchiate,nicchiare
nicchino,nicchiare
nobilitare,nobilitare
nobilitando,nobilitare
nobilitante,nobilitare
nobilitato,nobilitare
nobilito,nobilitare
nobiliti,nobilitare
nobilita,nobilitare
nobilitiamo,nobilitare
nobilitate,nobilitare
nobilitano,nobilitare
nobilitavo,nobilitare
nobilitavi,nobilitare
nobilitava,nobilitare
nobilitavamo,nobilitare
nobilitavate,nobilitare
nobilitavano,nobilitare
nobilitai,nobilitare
nobilitasti,nobilitare
nobilitò,nobilitare
nobilitammo,nobilitare
nobilitaste,nobilitare
nobilitarono,nobilitare
nobiliterò,nobilitare
nobiliterai,nobilitare
nobiliterà,nobilitare
nobiliteremo,nobilitare
nobiliterete,nobilitare
nobiliteranno,nobilitare
nobiliterei,nobilitare
nobiliteresti,nobilitare
nobiliterebbe,nobilitare
nobiliteremmo,nobilitare
nobilitereste,nobilitare
nobiliterebbero,nobilitare
nobiliti,nobilitare
nobiliti,nobilitare
nobiliti,nobilitare
nobilitiamo,nobilitare
nobilitiate,nobilitare
nobilitino,nobilitare
nobilitassi,nobilitare
nobilitassi,nobilitare
nobilitasse,nobilitare
nobilitassimo,nobilitare
nobilitaste,nobilitare
nobilitassero,nobilitare
nobilita,nobilitare
nobilitare,nobilitare
nobiliti,nobilitare
nobilitiamo,nobilitare
nobilitate,nobilitare
nobilitino,nobilitare
nazificare,nazificare
nazificando,nazificare
nazificante,nazificare
nazificato,nazificare
nazifico,nazificare
nazifichi,nazificare
nazifica,nazificare
nazifichiamo,nazificare
nazificate,nazificare
nazificano,nazificare
nazificavo,nazificare
nazificavi,nazificare
nazificava,nazificare
nazificavamo,nazificare
nazificavate,nazificare
nazificavano,nazificare
nazificai,nazificare
nazificasti,nazificare
nazificò,nazificare
nazificammo,nazificare
nazificaste,nazificare
nazificarono,nazificare
nazificherò,nazificare
nazificherai,nazificare
nazificherà,nazificare
nazificheremo,nazificare
nazificherete,nazificare
nazificheranno,nazificare
nazificherei,nazificare
nazificheresti,nazificare
nazificherebbe,nazificare
nazificheremmo,nazificare
nazifichereste,nazificare
nazificherebbero,nazificare
nazifichi,nazificare
nazifichi,nazificare
nazifichi,nazificare
nazifichiamo,nazificare
nazifichiate,nazificare
nazifichino,nazificare
nazificassi,nazificare
nazificassi,nazificare
nazificasse,nazificare
nazificassimo,nazificare
nazificaste,nazificare
nazificassero,nazificare
nazifica,nazificare
nazificare,nazificare
nazifichi,nazificare
nazifichiamo,nazificare
nazificate,nazificare
nazifichino,nazificare
notricare,notricare
notricando,notricare
notricante,notricare
notricato,notricare
notrico,notricare
notrichi,notricare
notrica,notricare
notrichiamo,notricare
notricate,notricare
notricano,notricare
notricavo,notricare
notricavi,notricare
notricava,notricare
notricavamo,notricare
notricavate,notricare
notricavano,notricare
notricai,notricare
notricasti,notricare
notricò,notricare
notricammo,notricare
notricaste,notricare
notricarono,notricare
notricherò,notricare
notricherai,notricare
notricherà,notricare
notricheremo,notricare
notricherete,notricare
notricheranno,notricare
notricherei,notricare
notricheresti,notricare
notricherebbe,notricare
notricheremmo,notricare
notrichereste,notricare
notricherebbero,notricare
notrichi,notricare
notrichi,notricare
notrichi,notricare
notrichiamo,notricare
notrichiate,notricare
notrichino,notricare
notricassi,notricare
notricassi,notricare
notricasse,notricare
notricassimo,notricare
notricaste,notricare
notricassero,notricare
notrica,notricare
notricare,notricare
notrichi,notricare
notrichiamo,notricare
notricate,notricare
notrichino,notricare
negarsi,negarsi
negandosi,negarsi
negantesi,negarsi
negato,negarsi
negatosi,negarsi
nego,negarsi
neghi,negarsi
nega,negarsi
neghiamo,negarsi
negate,negarsi
negano,negarsi
negavo,negarsi
negavi,negarsi
negava,negarsi
negavamo,negarsi
negavate,negarsi
negavano,negarsi
negai,negarsi
negasti,negarsi
negò,negarsi
negammo,negarsi
negaste,negarsi
negarono,negarsi
negherò,negarsi
negherai,negarsi
negherà,negarsi
negheremo,negarsi
negherete,negarsi
negheranno,negarsi
negherei,negarsi
negheresti,negarsi
negherebbe,negarsi
negheremmo,negarsi
neghereste,negarsi
negherebbero,negarsi
neghi,negarsi
neghi,negarsi
neghi,negarsi
neghiamo,negarsi
neghiate,negarsi
neghino,negarsi
negassi,negarsi
negassi,negarsi
negasse,negarsi
negassimo,negarsi
negaste,negarsi
negassero,negarsi
negati,negarsi
negare,negarsi
negarti,negarsi
neghi,negarsi
neghiamoci,negarsi
negatevi,negarsi
neghino,negarsi
novellare,novellare
novellando,novellare
novellante,novellare
novellato,novellare
novello,novellare
novelli,novellare
novella,novellare
novelliamo,novellare
novellate,novellare
novellano,novellare
novellavo,novellare
novellavi,novellare
novellava,novellare
novellavamo,novellare
novellavate,novellare
novellavano,novellare
novellai,novellare
novellasti,novellare
novellò,novellare
novellammo,novellare
novellaste,novellare
novellarono,novellare
novellerò,novellare
novellerai,novellare
novellerà,novellare
novelleremo,novellare
novellerete,novellare
novelleranno,novellare
novellerei,novellare
novelleresti,novellare
novellerebbe,novellare
novelleremmo,novellare
novellereste,novellare
novellerebbero,novellare
novelli,novellare
novelli,novellare
novelli,novellare
novelliamo,novellare
novelliate,novellare
novellino,novellare
novellassi,novellare
novellassi,novellare
novellasse,novellare
novellassimo,novellare
novellaste,novellare
novellassero,novellare
novella,novellare
novellare,novellare
novelli,novellare
novelliamo,novellare
novellate,novellare
novellino,novellare
nevigare,nevigare
nevigando,nevigare
nevigante,nevigare
nevigato,nevigare
&#8212;,nevigare
&#8212;,nevigare
neviga,nevigare
&#8212;,nevigare
&#8212;,nevigare
nevigano,nevigare
&#8212;,nevigare
&#8212;,nevigare
nevigava,nevigare
&#8212;,nevigare
&#8212;,nevigare
nevigavano,nevigare
&#8212;,nevigare
&#8212;,nevigare
nevigò,nevigare
&#8212;,nevigare
&#8212;,nevigare
nevigarono,nevigare
&#8212;,nevigare
&#8212;,nevigare
nevigherà,nevigare
&#8212;,nevigare
&#8212;,nevigare
nevigheranno,nevigare
&#8212;,nevigare
&#8212;,nevigare
nevigherebbe,nevigare
&#8212;,nevigare
&#8212;,nevigare
nevigherebbero,nevigare
&#8212;,nevigare
&#8212;,nevigare
nevighi,nevigare
&#8212;,nevigare
&#8212;,nevigare
nevighino,nevigare
&#8212;,nevigare
&#8212;,nevigare
nevigasse,nevigare
&#8212;,nevigare
&#8212;,nevigare
nevigassero,nevigare
&#8212;,nevigare
nevighi,nevigare
&#8212;,nevigare
&#8212;,nevigare
nevighino,nevigare
nodeggiare,nodeggiare
nodeggiando,nodeggiare
nodeggiante,nodeggiare
nodeggiato,nodeggiare
nodeggio,nodeggiare
nodeggi,nodeggiare
nodeggia,nodeggiare
nodeggiamo,nodeggiare
nodeggiate,nodeggiare
nodeggiano,nodeggiare
nodeggiavo,nodeggiare
nodeggiavi,nodeggiare
nodeggiava,nodeggiare
nodeggiavamo,nodeggiare
nodeggiavate,nodeggiare
nodeggiavano,nodeggiare
nodeggiai,nodeggiare
nodeggiasti,nodeggiare
nodeggiò,nodeggiare
nodeggiammo,nodeggiare
nodeggiaste,nodeggiare
nodeggiarono,nodeggiare
nodeggerò,nodeggiare
nodeggerai,nodeggiare
nodeggerà,nodeggiare
nodeggeremo,nodeggiare
nodeggerete,nodeggiare
nodeggeranno,nodeggiare
nodeggerei,nodeggiare
nodeggeresti,nodeggiare
nodeggerebbe,nodeggiare
nodeggeremmo,nodeggiare
nodeggereste,nodeggiare
nodeggerebbero,nodeggiare
nodeggi,nodeggiare
nodeggi,nodeggiare
nodeggi,nodeggiare
nodeggiamo,nodeggiare
nodeggiate,nodeggiare
nodeggino,nodeggiare
nodeggiassi,nodeggiare
nodeggiassi,nodeggiare
nodeggiasse,nodeggiare
nodeggiassimo,nodeggiare
nodeggiaste,nodeggiare
nodeggiassero,nodeggiare
nodeggia,nodeggiare
nodeggiare,nodeggiare
nodeggi,nodeggiare
nodeggiamo,nodeggiare
nodeggiate,nodeggiare
nodeggino,nodeggiare
nevischiare,nevischiare
nevischiando,nevischiare
nevischiante,nevischiare
nevischiato,nevischiare
&#8212;,nevischiare
&#8212;,nevischiare
nevischia,nevischiare
&#8212;,nevischiare
&#8212;,nevischiare
&#8212;,nevischiare
&#8212;,nevischiare
&#8212;,nevischiare
nevischiava,nevischiare
&#8212;,nevischiare
&#8212;,nevischiare
&#8212;,nevischiare
&#8212;,nevischiare
&#8212;,nevischiare
nevischiò,nevischiare
&#8212;,nevischiare
&#8212;,nevischiare
&#8212;,nevischiare
&#8212;,nevischiare
&#8212;,nevischiare
nevischierà,nevischiare
&#8212;,nevischiare
&#8212;,nevischiare
&#8212;,nevischiare
&#8212;,nevischiare
&#8212;,nevischiare
nevischierebbe,nevischiare
&#8212;,nevischiare
&#8212;,nevischiare
&#8212;,nevischiare
&#8212;,nevischiare
&#8212;,nevischiare
nevischi,nevischiare
&#8212;,nevischiare
&#8212;,nevischiare
&#8212;,nevischiare
&#8212;,nevischiare
&#8212;,nevischiare
nevischiasse,nevischiare
&#8212;,nevischiare
&#8212;,nevischiare
&#8212;,nevischiare
&#8212;,nevischiare
&#8212;,nevischiare
&#8212;,nevischiare
&#8212;,nevischiare
&#8212;,nevischiare
niellare,niellare
niellando,niellare
niellante,niellare
niellato,niellare
niello,niellare
nielli,niellare
niella,niellare
nielliamo,niellare
niellate,niellare
niellano,niellare
niellavo,niellare
niellavi,niellare
niellava,niellare
niellavamo,niellare
niellavate,niellare
niellavano,niellare
niellai,niellare
niellasti,niellare
niellò,niellare
niellammo,niellare
niellaste,niellare
niellarono,niellare
niellerò,niellare
niellerai,niellare
niellerà,niellare
nielleremo,niellare
niellerete,niellare
nielleranno,niellare
niellerei,niellare
nielleresti,niellare
niellerebbe,niellare
nielleremmo,niellare
niellereste,niellare
niellerebbero,niellare
nielli,niellare
nielli,niellare
nielli,niellare
nielliamo,niellare
nielliate,niellare
niellino,niellare
niellassi,niellare
niellassi,niellare
niellasse,niellare
niellassimo,niellare
niellaste,niellare
niellassero,niellare
niella,niellare
niellare,niellare
nielli,niellare
nielliamo,niellare
niellate,niellare
niellino,niellare
narcotizzare,narcotizzare
narcotizzando,narcotizzare
narcotizzante,narcotizzare
narcotizzato,narcotizzare
narcotizzo,narcotizzare
narcotizzi,narcotizzare
narcotizza,narcotizzare
narcotizziamo,narcotizzare
narcotizzate,narcotizzare
narcotizzano,narcotizzare
narcotizzavo,narcotizzare
narcotizzavi,narcotizzare
narcotizzava,narcotizzare
narcotizzavamo,narcotizzare
narcotizzavate,narcotizzare
narcotizzavano,narcotizzare
narcotizzai,narcotizzare
narcotizzasti,narcotizzare
narcotizzò,narcotizzare
narcotizzammo,narcotizzare
narcotizzaste,narcotizzare
narcotizzarono,narcotizzare
narcotizzerò,narcotizzare
narcotizzerai,narcotizzare
narcotizzerà,narcotizzare
narcotizzeremo,narcotizzare
narcotizzerete,narcotizzare
narcotizzeranno,narcotizzare
narcotizzerei,narcotizzare
narcotizzeresti,narcotizzare
narcotizzerebbe,narcotizzare
narcotizzeremmo,narcotizzare
narcotizzereste,narcotizzare
narcotizzerebbero,narcotizzare
narcotizzi,narcotizzare
narcotizzi,narcotizzare
narcotizzi,narcotizzare
narcotizziamo,narcotizzare
narcotizziate,narcotizzare
narcotizzino,narcotizzare
narcotizzassi,narcotizzare
narcotizzassi,narcotizzare
narcotizzasse,narcotizzare
narcotizzassimo,narcotizzare
narcotizzaste,narcotizzare
narcotizzassero,narcotizzare
narcotizza,narcotizzare
narcotizzare,narcotizzare
narcotizzi,narcotizzare
narcotizziamo,narcotizzare
narcotizzate,narcotizzare
narcotizzino,narcotizzare
nevrotizzarsi,nevrotizzarsi
nevrotizzandosi,nevrotizzarsi
nevrotizzantesi,nevrotizzarsi
nevrotizzato,nevrotizzarsi
nevrotizzatosi,nevrotizzarsi
nevrotizzo,nevrotizzarsi
nevrotizzi,nevrotizzarsi
nevrotizza,nevrotizzarsi
nevrotizziamo,nevrotizzarsi
nevrotizzate,nevrotizzarsi
nevrotizzano,nevrotizzarsi
nevrotizzavo,nevrotizzarsi
nevrotizzavi,nevrotizzarsi
nevrotizzava,nevrotizzarsi
nevrotizzavamo,nevrotizzarsi
nevrotizzavate,nevrotizzarsi
nevrotizzavano,nevrotizzarsi
nevrotizzai,nevrotizzarsi
nevrotizzasti,nevrotizzarsi
nevrotizzò,nevrotizzarsi
nevrotizzammo,nevrotizzarsi
nevrotizzaste,nevrotizzarsi
nevrotizzarono,nevrotizzarsi
nevrotizzerò,nevrotizzarsi
nevrotizzerai,nevrotizzarsi
nevrotizzerà,nevrotizzarsi
nevrotizzeremo,nevrotizzarsi
nevrotizzerete,nevrotizzarsi
nevrotizzeranno,nevrotizzarsi
nevrotizzerei,nevrotizzarsi
nevrotizzeresti,nevrotizzarsi
nevrotizzerebbe,nevrotizzarsi
nevrotizzeremmo,nevrotizzarsi
nevrotizzereste,nevrotizzarsi
nevrotizzerebbero,nevrotizzarsi
nevrotizzi,nevrotizzarsi
nevrotizzi,nevrotizzarsi
nevrotizzi,nevrotizzarsi
nevrotizziamo,nevrotizzarsi
nevrotizziate,nevrotizzarsi
nevrotizzino,nevrotizzarsi
nevrotizzassi,nevrotizzarsi
nevrotizzassi,nevrotizzarsi
nevrotizzasse,nevrotizzarsi
nevrotizzassimo,nevrotizzarsi
nevrotizzaste,nevrotizzarsi
nevrotizzassero,nevrotizzarsi
nevrotizzati,nevrotizzarsi
nevrotizzare,nevrotizzarsi
nevrotizzarti,nevrotizzarsi
nevrotizzi,nevrotizzarsi
nevrotizziamoci,nevrotizzarsi
nevrotizzatevi,nevrotizzarsi
nevrotizzino,nevrotizzarsi
naufragare,naufragare
naufragando,naufragare
naufragante,naufragare
naufragato,naufragare
naufrago,naufragare
naufraghi,naufragare
naufraga,naufragare
naufraghiamo,naufragare
naufragate,naufragare
naufragano,naufragare
naufragavo,naufragare
naufragavi,naufragare
naufragava,naufragare
naufragavamo,naufragare
naufragavate,naufragare
naufragavano,naufragare
naufragai,naufragare
naufragasti,naufragare
naufragò,naufragare
naufragammo,naufragare
naufragaste,naufragare
naufragarono,naufragare
naufragherò,naufragare
naufragherai,naufragare
naufragherà,naufragare
naufragheremo,naufragare
naufragherete,naufragare
naufragheranno,naufragare
naufragherei,naufragare
naufragheresti,naufragare
naufragherebbe,naufragare
naufragheremmo,naufragare
naufraghereste,naufragare
naufragherebbero,naufragare
naufraghi,naufragare
naufraghi,naufragare
naufraghi,naufragare
naufraghiamo,naufragare
naufraghiate,naufragare
naufraghino,naufragare
naufragassi,naufragare
naufragassi,naufragare
naufragasse,naufragare
naufragassimo,naufragare
naufragaste,naufragare
naufragassero,naufragare
naufraga,naufragare
naufragare,naufragare
naufraghi,naufragare
naufraghiamo,naufragare
naufragate,naufragare
naufraghino,naufragare
nevrotizzare,nevrotizzare
nevrotizzando,nevrotizzare
nevrotizzante,nevrotizzare
nevrotizzato,nevrotizzare
nevrotizzo,nevrotizzare
nevrotizzi,nevrotizzare
nevrotizza,nevrotizzare
nevrotizziamo,nevrotizzare
nevrotizzate,nevrotizzare
nevrotizzano,nevrotizzare
nevrotizzavo,nevrotizzare
nevrotizzavi,nevrotizzare
nevrotizzava,nevrotizzare
nevrotizzavamo,nevrotizzare
nevrotizzavate,nevrotizzare
nevrotizzavano,nevrotizzare
nevrotizzai,nevrotizzare
nevrotizzasti,nevrotizzare
nevrotizzò,nevrotizzare
nevrotizzammo,nevrotizzare
nevrotizzaste,nevrotizzare
nevrotizzarono,nevrotizzare
nevrotizzerò,nevrotizzare
nevrotizzerai,nevrotizzare
nevrotizzerà,nevrotizzare
nevrotizzeremo,nevrotizzare
nevrotizzerete,nevrotizzare
nevrotizzeranno,nevrotizzare
nevrotizzerei,nevrotizzare
nevrotizzeresti,nevrotizzare
nevrotizzerebbe,nevrotizzare
nevrotizzeremmo,nevrotizzare
nevrotizzereste,nevrotizzare
nevrotizzerebbero,nevrotizzare
nevrotizzi,nevrotizzare
nevrotizzi,nevrotizzare
nevrotizzi,nevrotizzare
nevrotizziamo,nevrotizzare
nevrotizziate,nevrotizzare
nevrotizzino,nevrotizzare
nevrotizzassi,nevrotizzare
nevrotizzassi,nevrotizzare
nevrotizzasse,nevrotizzare
nevrotizzassimo,nevrotizzare
nevrotizzaste,nevrotizzare
nevrotizzassero,nevrotizzare
nevrotizza,nevrotizzare
nevrotizzare,nevrotizzare
nevrotizzi,nevrotizzare
nevrotizziamo,nevrotizzare
nevrotizzate,nevrotizzare
nevrotizzino,nevrotizzare
nascondersi,nascondersi
nascondendosi,nascondersi
nascondentesi,nascondersi
nascosto,nascondersi
nascostosi,nascondersi
nascondo,nascondersi
nascondi,nascondersi
nasconde,nascondersi
nascondiamo,nascondersi
nascondete,nascondersi
nascondono,nascondersi
nascondevo,nascondersi
nascondevi,nascondersi
nascondeva,nascondersi
nascondevamo,nascondersi
nascondevate,nascondersi
nascondevano,nascondersi
nascosi,nascondersi
nascondesti,nascondersi
nascose,nascondersi
nascondemmo,nascondersi
nascondeste,nascondersi
nascosero,nascondersi
nasconderò,nascondersi
nasconderai,nascondersi
nasconderà,nascondersi
nasconderemo,nascondersi
nasconderete,nascondersi
nasconderanno,nascondersi
nasconderei,nascondersi
nasconderesti,nascondersi
nasconderebbe,nascondersi
nasconderemmo,nascondersi
nascondereste,nascondersi
nasconderebbero,nascondersi
nasconda,nascondersi
nasconda,nascondersi
nasconda,nascondersi
nascondiamo,nascondersi
nascondiate,nascondersi
nascondano,nascondersi
nascondessi,nascondersi
nascondessi,nascondersi
nascondesse,nascondersi
nascondessimo,nascondersi
nascondeste,nascondersi
nascondessero,nascondersi
nasconditi,nascondersi
nascondere,nascondersi
nasconderti,nascondersi
nasconda,nascondersi
nascondiamoci,nascondersi
nascondetevi,nascondersi
nascondano,nascondersi
nudricare,nudricare
nudricando,nudricare
nudricante,nudricare
nudricato,nudricare
nudrico,nudricare
nudrichi,nudricare
nudrica,nudricare
nudrichiamo,nudricare
nudricate,nudricare
nudricano,nudricare
nudricavo,nudricare
nudricavi,nudricare
nudricava,nudricare
nudricavamo,nudricare
nudricavate,nudricare
nudricavano,nudricare
nudricai,nudricare
nudricasti,nudricare
nudricò,nudricare
nudricammo,nudricare
nudricaste,nudricare
nudricarono,nudricare
nudricherò,nudricare
nudricherai,nudricare
nudricherà,nudricare
nudricheremo,nudricare
nudricherete,nudricare
nudricheranno,nudricare
nudricherei,nudricare
nudricheresti,nudricare
nudricherebbe,nudricare
nudricheremmo,nudricare
nudrichereste,nudricare
nudricherebbero,nudricare
nudrichi,nudricare
nudrichi,nudricare
nudrichi,nudricare
nudrichiamo,nudricare
nudrichiate,nudricare
nudrichino,nudricare
nudricassi,nudricare
nudricassi,nudricare
nudricasse,nudricare
nudricassimo,nudricare
nudricaste,nudricare
nudricassero,nudricare
nudrica,nudricare
nudricare,nudricare
nudrichi,nudricare
nudrichiamo,nudricare
nudricate,nudricare
nudrichino,nudricare
nutrire,nutrire
nutrendo,nutrire
nutrente,nutrire
nutrito,nutrire
nutrisco,nutrire
nutrisci,nutrire
nutrisce,nutrire
nutriamo,nutrire
nutrite,nutrire
nutriscono,nutrire
nutrivo,nutrire
nutrivi,nutrire
nutriva,nutrire
nutrivamo,nutrire
nutrivate,nutrire
nutrivano,nutrire
nutrii,nutrire
nutristi,nutrire
nutrì,nutrire
nutrimmo,nutrire
nutriste,nutrire
nutrirono,nutrire
nutrirò,nutrire
nutrirai,nutrire
nutrirà,nutrire
nutriremo,nutrire
nutrirete,nutrire
nutriranno,nutrire
nutrirei,nutrire
nutriresti,nutrire
nutrirebbe,nutrire
nutriremmo,nutrire
nutrireste,nutrire
nutrirebbero,nutrire
nutrisca,nutrire
nutrisca,nutrire
nutrisca,nutrire
nutriamo,nutrire
nutriate,nutrire
nutriscano,nutrire
nutrissi,nutrire
nutrissi,nutrire
nutrisse,nutrire
nutrissimo,nutrire
nutriste,nutrire
nutrissero,nutrire
nutrisci,nutrire
nutrire,nutrire
nutrisca,nutrire
nutriamo,nutrire
nutrite,nutrire
nutriscano,nutrire
ninfeggiare,ninfeggiare
ninfeggiando,ninfeggiare
ninfeggiante,ninfeggiare
ninfeggiato,ninfeggiare
ninfeggio,ninfeggiare
ninfeggi,ninfeggiare
ninfeggia,ninfeggiare
ninfeggiamo,ninfeggiare
ninfeggiate,ninfeggiare
ninfeggiano,ninfeggiare
ninfeggiavo,ninfeggiare
ninfeggiavi,ninfeggiare
ninfeggiava,ninfeggiare
ninfeggiavamo,ninfeggiare
ninfeggiavate,ninfeggiare
ninfeggiavano,ninfeggiare
ninfeggiai,ninfeggiare
ninfeggiasti,ninfeggiare
ninfeggiò,ninfeggiare
ninfeggiammo,ninfeggiare
ninfeggiaste,ninfeggiare
ninfeggiarono,ninfeggiare
ninfeggerò,ninfeggiare
ninfeggerai,ninfeggiare
ninfeggerà,ninfeggiare
ninfeggeremo,ninfeggiare
ninfeggerete,ninfeggiare
ninfeggeranno,ninfeggiare
ninfeggerei,ninfeggiare
ninfeggeresti,ninfeggiare
ninfeggerebbe,ninfeggiare
ninfeggeremmo,ninfeggiare
ninfeggereste,ninfeggiare
ninfeggerebbero,ninfeggiare
ninfeggi,ninfeggiare
ninfeggi,ninfeggiare
ninfeggi,ninfeggiare
ninfeggiamo,ninfeggiare
ninfeggiate,ninfeggiare
ninfeggino,ninfeggiare
ninfeggiassi,ninfeggiare
ninfeggiassi,ninfeggiare
ninfeggiasse,ninfeggiare
ninfeggiassimo,ninfeggiare
ninfeggiaste,ninfeggiare
ninfeggiassero,ninfeggiare
ninfeggia,ninfeggiare
ninfeggiare,ninfeggiare
ninfeggi,ninfeggiare
ninfeggiamo,ninfeggiare
ninfeggiate,ninfeggiare
ninfeggino,ninfeggiare
narrativizzare,narrativizzare
narrativizzando,narrativizzare
narrativizzante,narrativizzare
narrativizzato,narrativizzare
narrativizzo,narrativizzare
narrativizzi,narrativizzare
narrativizza,narrativizzare
narrativizziamo,narrativizzare
narrativizzate,narrativizzare
narrativizzano,narrativizzare
narrativizzavo,narrativizzare
narrativizzavi,narrativizzare
narrativizzava,narrativizzare
narrativizzavamo,narrativizzare
narrativizzavate,narrativizzare
narrativizzavano,narrativizzare
narrativizzai,narrativizzare
narrativizzasti,narrativizzare
narrativizzò,narrativizzare
narrativizzammo,narrativizzare
narrativizzaste,narrativizzare
narrativizzarono,narrativizzare
narrativizzerò,narrativizzare
narrativizzerai,narrativizzare
narrativizzerà,narrativizzare
narrativizzeremo,narrativizzare
narrativizzerete,narrativizzare
narrativizzeranno,narrativizzare
narrativizzerei,narrativizzare
narrativizzeresti,narrativizzare
narrativizzerebbe,narrativizzare
narrativizzeremmo,narrativizzare
narrativizzereste,narrativizzare
narrativizzerebbero,narrativizzare
narrativizzi,narrativizzare
narrativizzi,narrativizzare
narrativizzi,narrativizzare
narrativizziamo,narrativizzare
narrativizziate,narrativizzare
narrativizzino,narrativizzare
narrativizzassi,narrativizzare
narrativizzassi,narrativizzare
narrativizzasse,narrativizzare
narrativizzassimo,narrativizzare
narrativizzaste,narrativizzare
narrativizzassero,narrativizzare
narrativizza,narrativizzare
narrativizzare,narrativizzare
narrativizzi,narrativizzare
narrativizziamo,narrativizzare
narrativizzate,narrativizzare
narrativizzino,narrativizzare
navigare,navigare
navigando,navigare
navigante,navigare
navigato,navigare
navigo,navigare
navighi,navigare
naviga,navigare
navighiamo,navigare
navigate,navigare
navigano,navigare
navigavo,navigare
navigavi,navigare
navigava,navigare
navigavamo,navigare
navigavate,navigare
navigavano,navigare
navigai,navigare
navigasti,navigare
navigò,navigare
navigammo,navigare
navigaste,navigare
navigarono,navigare
navigherò,navigare
navigherai,navigare
navigherà,navigare
navigheremo,navigare
navigherete,navigare
navigheranno,navigare
navigherei,navigare
navigheresti,navigare
navigherebbe,navigare
navigheremmo,navigare
navighereste,navigare
navigherebbero,navigare
navighi,navigare
navighi,navigare
navighi,navigare
navighiamo,navigare
navighiate,navigare
navighino,navigare
navigassi,navigare
navigassi,navigare
navigasse,navigare
navigassimo,navigare
navigaste,navigare
navigassero,navigare
naviga,navigare
navigare,navigare
navighi,navigare
navighiamo,navigare
navigate,navigare
navighino,navigare
nasalizzare,nasalizzare
nasalizzando,nasalizzare
nasalizzante,nasalizzare
nasalizzato,nasalizzare
nasalizzo,nasalizzare
nasalizzi,nasalizzare
nasalizza,nasalizzare
nasalizziamo,nasalizzare
nasalizzate,nasalizzare
nasalizzano,nasalizzare
nasalizzavo,nasalizzare
nasalizzavi,nasalizzare
nasalizzava,nasalizzare
nasalizzavamo,nasalizzare
nasalizzavate,nasalizzare
nasalizzavano,nasalizzare
nasalizzai,nasalizzare
nasalizzasti,nasalizzare
nasalizzò,nasalizzare
nasalizzammo,nasalizzare
nasalizzaste,nasalizzare
nasalizzarono,nasalizzare
nasalizzerò,nasalizzare
nasalizzerai,nasalizzare
nasalizzerà,nasalizzare
nasalizzeremo,nasalizzare
nasalizzerete,nasalizzare
nasalizzeranno,nasalizzare
nasalizzerei,nasalizzare
nasalizzeresti,nasalizzare
nasalizzerebbe,nasalizzare
nasalizzeremmo,nasalizzare
nasalizzereste,nasalizzare
nasalizzerebbero,nasalizzare
nasalizzi,nasalizzare
nasalizzi,nasalizzare
nasalizzi,nasalizzare
nasalizziamo,nasalizzare
nasalizziate,nasalizzare
nasalizzino,nasalizzare
nasalizzassi,nasalizzare
nasalizzassi,nasalizzare
nasalizzasse,nasalizzare
nasalizzassimo,nasalizzare
nasalizzaste,nasalizzare
nasalizzassero,nasalizzare
nasalizza,nasalizzare
nasalizzare,nasalizzare
nasalizzi,nasalizzare
nasalizziamo,nasalizzare
nasalizzate,nasalizzare
nasalizzino,nasalizzare
nullificarsi,nullificarsi
nullificandosi,nullificarsi
nullificantesi,nullificarsi
nullificato,nullificarsi
nullificatosi,nullificarsi
nullifico,nullificarsi
nullifichi,nullificarsi
nullifica,nullificarsi
nullifichiamo,nullificarsi
nullificate,nullificarsi
nullificano,nullificarsi
nullificavo,nullificarsi
nullificavi,nullificarsi
nullificava,nullificarsi
nullificavamo,nullificarsi
nullificavate,nullificarsi
nullificavano,nullificarsi
nullificai,nullificarsi
nullificasti,nullificarsi
nullificò,nullificarsi
nullificammo,nullificarsi
nullificaste,nullificarsi
nullificarono,nullificarsi
nullificherò,nullificarsi
nullificherai,nullificarsi
nullificherà,nullificarsi
nullificheremo,nullificarsi
nullificherete,nullificarsi
nullificheranno,nullificarsi
nullificherei,nullificarsi
nullificheresti,nullificarsi
nullificherebbe,nullificarsi
nullificheremmo,nullificarsi
nullifichereste,nullificarsi
nullificherebbero,nullificarsi
nullifichi,nullificarsi
nullifichi,nullificarsi
nullifichi,nullificarsi
nullifichiamo,nullificarsi
nullifichiate,nullificarsi
nullifichino,nullificarsi
nullificassi,nullificarsi
nullificassi,nullificarsi
nullificasse,nullificarsi
nullificassimo,nullificarsi
nullificaste,nullificarsi
nullificassero,nullificarsi
nullificati,nullificarsi
nullificare,nullificarsi
nullificarti,nullificarsi
nullifichi,nullificarsi
nullifichiamoci,nullificarsi
nullificatevi,nullificarsi
nullifichino,nullificarsi
neutralizzare,neutralizzare
neutralizzando,neutralizzare
neutralizzante,neutralizzare
neutralizzato,neutralizzare
neutralizzo,neutralizzare
neutralizzi,neutralizzare
neutralizza,neutralizzare
neutralizziamo,neutralizzare
neutralizzate,neutralizzare
neutralizzano,neutralizzare
neutralizzavo,neutralizzare
neutralizzavi,neutralizzare
neutralizzava,neutralizzare
neutralizzavamo,neutralizzare
neutralizzavate,neutralizzare
neutralizzavano,neutralizzare
neutralizzai,neutralizzare
neutralizzasti,neutralizzare
neutralizzò,neutralizzare
neutralizzammo,neutralizzare
neutralizzaste,neutralizzare
neutralizzarono,neutralizzare
neutralizzerò,neutralizzare
neutralizzerai,neutralizzare
neutralizzerà,neutralizzare
neutralizzeremo,neutralizzare
neutralizzerete,neutralizzare
neutralizzeranno,neutralizzare
neutralizzerei,neutralizzare
neutralizzeresti,neutralizzare
neutralizzerebbe,neutralizzare
neutralizzeremmo,neutralizzare
neutralizzereste,neutralizzare
neutralizzerebbero,neutralizzare
neutralizzi,neutralizzare
neutralizzi,neutralizzare
neutralizzi,neutralizzare
neutralizziamo,neutralizzare
neutralizziate,neutralizzare
neutralizzino,neutralizzare
neutralizzassi,neutralizzare
neutralizzassi,neutralizzare
neutralizzasse,neutralizzare
neutralizzassimo,neutralizzare
neutralizzaste,neutralizzare
neutralizzassero,neutralizzare
neutralizza,neutralizzare
neutralizzare,neutralizzare
neutralizzi,neutralizzare
neutralizziamo,neutralizzare
neutralizzate,neutralizzare
neutralizzino,neutralizzare
negreggiare,negreggiare
negreggiando,negreggiare
negreggiante,negreggiare
negreggiato,negreggiare
negreggio,negreggiare
negreggi,negreggiare
negreggia,negreggiare
negreggiamo,negreggiare
negreggiate,negreggiare
negreggiano,negreggiare
negreggiavo,negreggiare
negreggiavi,negreggiare
negreggiava,negreggiare
negreggiavamo,negreggiare
negreggiavate,negreggiare
negreggiavano,negreggiare
negreggiai,negreggiare
negreggiasti,negreggiare
negreggiò,negreggiare
negreggiammo,negreggiare
negreggiaste,negreggiare
negreggiarono,negreggiare
negreggerò,negreggiare
negreggerai,negreggiare
negreggerà,negreggiare
negreggeremo,negreggiare
negreggerete,negreggiare
negreggeranno,negreggiare
negreggerei,negreggiare
negreggeresti,negreggiare
negreggerebbe,negreggiare
negreggeremmo,negreggiare
negreggereste,negreggiare
negreggerebbero,negreggiare
negreggi,negreggiare
negreggi,negreggiare
negreggi,negreggiare
negreggiamo,negreggiare
negreggiate,negreggiare
negreggino,negreggiare
negreggiassi,negreggiare
negreggiassi,negreggiare
negreggiasse,negreggiare
negreggiassimo,negreggiare
negreggiaste,negreggiare
negreggiassero,negreggiare
negreggia,negreggiare
negreggiare,negreggiare
negreggi,negreggiare
negreggiamo,negreggiare
negreggiate,negreggiare
negreggino,negreggiare
nichelare,nichelare
nichelando,nichelare
nichelante,nichelare
nichelato,nichelare
nichelo,nichelare
nicheli,nichelare
nichela,nichelare
nicheliamo,nichelare
nichelate,nichelare
nichelano,nichelare
nichelavo,nichelare
nichelavi,nichelare
nichelava,nichelare
nichelavamo,nichelare
nichelavate,nichelare
nichelavano,nichelare
nichelai,nichelare
nichelasti,nichelare
nichelò,nichelare
nichelammo,nichelare
nichelaste,nichelare
nichelarono,nichelare
nichelerò,nichelare
nichelerai,nichelare
nichelerà,nichelare
nicheleremo,nichelare
nichelerete,nichelare
nicheleranno,nichelare
nichelerei,nichelare
nicheleresti,nichelare
nichelerebbe,nichelare
nicheleremmo,nichelare
nichelereste,nichelare
nichelerebbero,nichelare
nicheli,nichelare
nicheli,nichelare
nicheli,nichelare
nicheliamo,nichelare
nicheliate,nichelare
nichelino,nichelare
nichelassi,nichelare
nichelassi,nichelare
nichelasse,nichelare
nichelassimo,nichelare
nichelaste,nichelare
nichelassero,nichelare
nichela,nichelare
nichelare,nichelare
nicheli,nichelare
nicheliamo,nichelare
nichelate,nichelare
nichelino,nichelare
notificarsi,notificarsi
notificandosi,notificarsi
notificantesi,notificarsi
notificato,notificarsi
notificatosi,notificarsi
notifico,notificarsi
notifichi,notificarsi
notifica,notificarsi
notifichiamo,notificarsi
notificate,notificarsi
notificano,notificarsi
notificavo,notificarsi
notificavi,notificarsi
notificava,notificarsi
notificavamo,notificarsi
notificavate,notificarsi
notificavano,notificarsi
notificai,notificarsi
notificasti,notificarsi
notificò,notificarsi
notificammo,notificarsi
notificaste,notificarsi
notificarono,notificarsi
notificherò,notificarsi
notificherai,notificarsi
notificherà,notificarsi
notificheremo,notificarsi
notificherete,notificarsi
notificheranno,notificarsi
notificherei,notificarsi
notificheresti,notificarsi
notificherebbe,notificarsi
notificheremmo,notificarsi
notifichereste,notificarsi
notificherebbero,notificarsi
notifichi,notificarsi
notifichi,notificarsi
notifichi,notificarsi
notifichiamo,notificarsi
notifichiate,notificarsi
notifichino,notificarsi
notificassi,notificarsi
notificassi,notificarsi
notificasse,notificarsi
notificassimo,notificarsi
notificaste,notificarsi
notificassero,notificarsi
notificati,notificarsi
notificare,notificarsi
notificarti,notificarsi
notifichi,notificarsi
notifichiamoci,notificarsi
notificatevi,notificarsi
notifichino,notificarsi
nastrare,nastrare
nastrando,nastrare
nastrante,nastrare
nastrato,nastrare
nastro,nastrare
nastri,nastrare
nastra,nastrare
nastriamo,nastrare
nastrate,nastrare
nastrano,nastrare
nastravo,nastrare
nastravi,nastrare
nastrava,nastrare
nastravamo,nastrare
nastravate,nastrare
nastravano,nastrare
nastrai,nastrare
nastrasti,nastrare
nastrò,nastrare
nastrammo,nastrare
nastraste,nastrare
nastrarono,nastrare
nastrerò,nastrare
nastrerai,nastrare
nastrerà,nastrare
nastreremo,nastrare
nastrerete,nastrare
nastreranno,nastrare
nastrerei,nastrare
nastreresti,nastrare
nastrerebbe,nastrare
nastreremmo,nastrare
nastrereste,nastrare
nastrerebbero,nastrare
nastri,nastrare
nastri,nastrare
nastri,nastrare
nastriamo,nastrare
nastriate,nastrare
nastrino,nastrare
nastrassi,nastrare
nastrassi,nastrare
nastrasse,nastrare
nastrassimo,nastrare
nastraste,nastrare
nastrassero,nastrare
nastra,nastrare
nastrare,nastrare
nastri,nastrare
nastriamo,nastrare
nastrate,nastrare
nastrino,nastrare
necessitare,necessitare
necessitando,necessitare
necessitante,necessitare
necessitato,necessitare
necessito,necessitare
necessiti,necessitare
necessita,necessitare
necessitiamo,necessitare
necessitate,necessitare
necessitano,necessitare
necessitavo,necessitare
necessitavi,necessitare
necessitava,necessitare
necessitavamo,necessitare
necessitavate,necessitare
necessitavano,necessitare
necessitai,necessitare
necessitasti,necessitare
necessitò,necessitare
necessitammo,necessitare
necessitaste,necessitare
necessitarono,necessitare
necessiterò,necessitare
necessiterai,necessitare
necessiterà,necessitare
necessiteremo,necessitare
necessiterete,necessitare
necessiteranno,necessitare
necessiterei,necessitare
necessiteresti,necessitare
necessiterebbe,necessitare
necessiteremmo,necessitare
necessitereste,necessitare
necessiterebbero,necessitare
necessiti,necessitare
necessiti,necessitare
necessiti,necessitare
necessitiamo,necessitare
necessitiate,necessitare
necessitino,necessitare
necessitassi,necessitare
necessitassi,necessitare
necessitasse,necessitare
necessitassimo,necessitare
necessitaste,necessitare
necessitassero,necessitare
necessita,necessitare
necessitare,necessitare
necessiti,necessitare
necessitiamo,necessitare
necessitate,necessitare
necessitino,necessitare
neologizzare,neologizzare
neologizzando,neologizzare
neologizzante,neologizzare
neologizzato,neologizzare
neologizzo,neologizzare
neologizzi,neologizzare
neologizza,neologizzare
neologizziamo,neologizzare
neologizzate,neologizzare
neologizzano,neologizzare
neologizzavo,neologizzare
neologizzavi,neologizzare
neologizzava,neologizzare
neologizzavamo,neologizzare
neologizzavate,neologizzare
neologizzavano,neologizzare
neologizzai,neologizzare
neologizzasti,neologizzare
neologizzò,neologizzare
neologizzammo,neologizzare
neologizzaste,neologizzare
neologizzarono,neologizzare
neologizzerò,neologizzare
neologizzerai,neologizzare
neologizzerà,neologizzare
neologizzeremo,neologizzare
neologizzerete,neologizzare
neologizzeranno,neologizzare
neologizzerei,neologizzare
neologizzeresti,neologizzare
neologizzerebbe,neologizzare
neologizzeremmo,neologizzare
neologizzereste,neologizzare
neologizzerebbero,neologizzare
neologizzi,neologizzare
neologizzi,neologizzare
neologizzi,neologizzare
neologizziamo,neologizzare
neologizziate,neologizzare
neologizzino,neologizzare
neologizzassi,neologizzare
neologizzassi,neologizzare
neologizzasse,neologizzare
neologizzassimo,neologizzare
neologizzaste,neologizzare
neologizzassero,neologizzare
neologizza,neologizzare
neologizzare,neologizzare
neologizzi,neologizzare
neologizziamo,neologizzare
neologizzate,neologizzare
neologizzino,neologizzare
nappare,nappare
nappando,nappare
nappante,nappare
nappato,nappare
nappo,nappare
nappi,nappare
nappa,nappare
nappiamo,nappare
nappate,nappare
nappano,nappare
nappavo,nappare
nappavi,nappare
nappava,nappare
nappavamo,nappare
nappavate,nappare
nappavano,nappare
nappai,nappare
nappasti,nappare
nappò,nappare
nappammo,nappare
nappaste,nappare
napparono,nappare
napperò,nappare
napperai,nappare
napperà,nappare
napperemo,nappare
napperete,nappare
napperanno,nappare
napperei,nappare
napperesti,nappare
napperebbe,nappare
napperemmo,nappare
nappereste,nappare
napperebbero,nappare
nappi,nappare
nappi,nappare
nappi,nappare
nappiamo,nappare
nappiate,nappare
nappino,nappare
nappassi,nappare
nappassi,nappare
nappasse,nappare
nappassimo,nappare
nappaste,nappare
nappassero,nappare
nappa,nappare
nappare,nappare
nappi,nappare
nappiamo,nappare
nappate,nappare
nappino,nappare
nettare,nettare
nettando,nettare
nettante,nettare
nettato,nettare
netto,nettare
netti,nettare
netta,nettare
nettiamo,nettare
nettate,nettare
nettano,nettare
nettavo,nettare
nettavi,nettare
nettava,nettare
nettavamo,nettare
nettavate,nettare
nettavano,nettare
nettai,nettare
nettasti,nettare
nettò,nettare
nettammo,nettare
nettaste,nettare
nettarono,nettare
netterò,nettare
netterai,nettare
netterà,nettare
netteremo,nettare
netterete,nettare
netteranno,nettare
netterei,nettare
netteresti,nettare
netterebbe,nettare
netteremmo,nettare
nettereste,nettare
netterebbero,nettare
netti,nettare
netti,nettare
netti,nettare
nettiamo,nettare
nettiate,nettare
nettino,nettare
nettassi,nettare
nettassi,nettare
nettasse,nettare
nettassimo,nettare
nettaste,nettare
nettassero,nettare
netta,nettare
nettare,nettare
netti,nettare
nettiamo,nettare
nettate,nettare
nettino,nettare
nerbare,nerbare
nerbando,nerbare
nerbante,nerbare
nerbato,nerbare
nerbo,nerbare
nerbi,nerbare
nerba,nerbare
nerbiamo,nerbare
nerbate,nerbare
nerbano,nerbare
nerbavo,nerbare
nerbavi,nerbare
nerbava,nerbare
nerbavamo,nerbare
nerbavate,nerbare
nerbavano,nerbare
nerbai,nerbare
nerbasti,nerbare
nerbò,nerbare
nerbammo,nerbare
nerbaste,nerbare
nerbarono,nerbare
nerberò,nerbare
nerberai,nerbare
nerberà,nerbare
nerberemo,nerbare
nerberete,nerbare
nerberanno,nerbare
nerberei,nerbare
nerberesti,nerbare
nerberebbe,nerbare
nerberemmo,nerbare
nerbereste,nerbare
nerberebbero,nerbare
nerbi,nerbare
nerbi,nerbare
nerbi,nerbare
nerbiamo,nerbare
nerbiate,nerbare
nerbino,nerbare
nerbassi,nerbare
nerbassi,nerbare
nerbasse,nerbare
nerbassimo,nerbare
nerbaste,nerbare
nerbassero,nerbare
nerba,nerbare
nerbare,nerbare
nerbi,nerbare
nerbiamo,nerbare
nerbate,nerbare
nerbino,nerbare
novelleggiare,novelleggiare
novelleggiando,novelleggiare
novelleggiante,novelleggiare
novelleggiato,novelleggiare
novelleggio,novelleggiare
novelleggi,novelleggiare
novelleggia,novelleggiare
novelleggiamo,novelleggiare
novelleggiate,novelleggiare
novelleggiano,novelleggiare
novelleggiavo,novelleggiare
novelleggiavi,novelleggiare
novelleggiava,novelleggiare
novelleggiavamo,novelleggiare
novelleggiavate,novelleggiare
novelleggiavano,novelleggiare
novelleggiai,novelleggiare
novelleggiasti,novelleggiare
novelleggiò,novelleggiare
novelleggiammo,novelleggiare
novelleggiaste,novelleggiare
novelleggiarono,novelleggiare
novelleggerò,novelleggiare
novelleggerai,novelleggiare
novelleggerà,novelleggiare
novelleggeremo,novelleggiare
novelleggerete,novelleggiare
novelleggeranno,novelleggiare
novelleggerei,novelleggiare
novelleggeresti,novelleggiare
novelleggerebbe,novelleggiare
novelleggeremmo,novelleggiare
novelleggereste,novelleggiare
novelleggerebbero,novelleggiare
novelleggi,novelleggiare
novelleggi,novelleggiare
novelleggi,novelleggiare
novelleggiamo,novelleggiare
novelleggiate,novelleggiare
novelleggino,novelleggiare
novelleggiassi,novelleggiare
novelleggiassi,novelleggiare
novelleggiasse,novelleggiare
novelleggiassimo,novelleggiare
novelleggiaste,novelleggiare
novelleggiassero,novelleggiare
novelleggia,novelleggiare
novelleggiare,novelleggiare
novelleggi,novelleggiare
novelleggiamo,novelleggiare
novelleggiate,novelleggiare
novelleggino,novelleggiare
nitratare,nitratare
nitratando,nitratare
nitratante,nitratare
nitratato,nitratare
nitrato,nitratare
nitrati,nitratare
nitrata,nitratare
nitratiamo,nitratare
nitratate,nitratare
nitratano,nitratare
nitratavo,nitratare
nitratavi,nitratare
nitratava,nitratare
nitratavamo,nitratare
nitratavate,nitratare
nitratavano,nitratare
nitratai,nitratare
nitratasti,nitratare
nitratò,nitratare
nitratammo,nitratare
nitrataste,nitratare
nitratarono,nitratare
nitraterò,nitratare
nitraterai,nitratare
nitraterà,nitratare
nitrateremo,nitratare
nitraterete,nitratare
nitrateranno,nitratare
nitraterei,nitratare
nitrateresti,nitratare
nitraterebbe,nitratare
nitrateremmo,nitratare
nitratereste,nitratare
nitraterebbero,nitratare
nitrati,nitratare
nitrati,nitratare
nitrati,nitratare
nitratiamo,nitratare
nitratiate,nitratare
nitratino,nitratare
nitratassi,nitratare
nitratassi,nitratare
nitratasse,nitratare
nitratassimo,nitratare
nitrataste,nitratare
nitratassero,nitratare
nitrata,nitratare
nitratare,nitratare
nitrati,nitratare
nitratiamo,nitratare
nitratate,nitratare
nitratino,nitratare
numerizzare,numerizzare
numerizzando,numerizzare
numerizzante,numerizzare
numerizzato,numerizzare
numerizzo,numerizzare
numerizzi,numerizzare
numerizza,numerizzare
numerizziamo,numerizzare
numerizzate,numerizzare
numerizzano,numerizzare
numerizzavo,numerizzare
numerizzavi,numerizzare
numerizzava,numerizzare
numerizzavamo,numerizzare
numerizzavate,numerizzare
numerizzavano,numerizzare
numerizzai,numerizzare
numerizzasti,numerizzare
numerizzò,numerizzare
numerizzammo,numerizzare
numerizzaste,numerizzare
numerizzarono,numerizzare
numerizzerò,numerizzare
numerizzerai,numerizzare
numerizzerà,numerizzare
numerizzeremo,numerizzare
numerizzerete,numerizzare
numerizzeranno,numerizzare
numerizzerei,numerizzare
numerizzeresti,numerizzare
numerizzerebbe,numerizzare
numerizzeremmo,numerizzare
numerizzereste,numerizzare
numerizzerebbero,numerizzare
numerizzi,numerizzare
numerizzi,numerizzare
numerizzi,numerizzare
numerizziamo,numerizzare
numerizziate,numerizzare
numerizzino,numerizzare
numerizzassi,numerizzare
numerizzassi,numerizzare
numerizzasse,numerizzare
numerizzassimo,numerizzare
numerizzaste,numerizzare
numerizzassero,numerizzare
numerizza,numerizzare
numerizzare,numerizzare
numerizzi,numerizzare
numerizziamo,numerizzare
numerizzate,numerizzare
numerizzino,numerizzare
notare,notare
notando,notare
notante,notare
notato,notare
noto,notare
noti,notare
nota,notare
notiamo,notare
notate,notare
notano,notare
notavo,notare
notavi,notare
notava,notare
notavamo,notare
notavate,notare
notavano,notare
notai,notare
notasti,notare
notò,notare
notammo,notare
notaste,notare
notarono,notare
noterò,notare
noterai,notare
noterà,notare
noteremo,notare
noterete,notare
noteranno,notare
noterei,notare
noteresti,notare
noterebbe,notare
noteremmo,notare
notereste,notare
noterebbero,notare
noti,notare
noti,notare
noti,notare
notiamo,notare
notiate,notare
notino,notare
notassi,notare
notassi,notare
notasse,notare
notassimo,notare
notaste,notare
notassero,notare
nota,notare
notare,notare
noti,notare
notiamo,notare
notate,notare
notino,notare
normare,normare
normando,normare
normante,normare
normato,normare
normo,normare
normi,normare
norma,normare
normiamo,normare
normate,normare
normano,normare
normavo,normare
normavi,normare
normava,normare
normavamo,normare
normavate,normare
normavano,normare
normai,normare
normasti,normare
normò,normare
normammo,normare
normaste,normare
normarono,normare
normerò,normare
normerai,normare
normerà,normare
normeremo,normare
normerete,normare
normeranno,normare
normerei,normare
normeresti,normare
normerebbe,normare
normeremmo,normare
normereste,normare
normerebbero,normare
normi,normare
normi,normare
normi,normare
normiamo,normare
normiate,normare
normino,normare
normassi,normare
normassi,normare
normasse,normare
normassimo,normare
normaste,normare
normassero,normare
norma,normare
normare,normare
normi,normare
normiamo,normare
normate,normare
normino,normare
nebulizzare,nebulizzare
nebulizzando,nebulizzare
nebulizzante,nebulizzare
nebulizzato,nebulizzare
nebulizzo,nebulizzare
nebulizzi,nebulizzare
nebulizza,nebulizzare
nebulizziamo,nebulizzare
nebulizzate,nebulizzare
nebulizzano,nebulizzare
nebulizzavo,nebulizzare
nebulizzavi,nebulizzare
nebulizzava,nebulizzare
nebulizzavamo,nebulizzare
nebulizzavate,nebulizzare
nebulizzavano,nebulizzare
nebulizzai,nebulizzare
nebulizzasti,nebulizzare
nebulizzò,nebulizzare
nebulizzammo,nebulizzare
nebulizzaste,nebulizzare
nebulizzarono,nebulizzare
nebulizzerò,nebulizzare
nebulizzerai,nebulizzare
nebulizzerà,nebulizzare
nebulizzeremo,nebulizzare
nebulizzerete,nebulizzare
nebulizzeranno,nebulizzare
nebulizzerei,nebulizzare
nebulizzeresti,nebulizzare
nebulizzerebbe,nebulizzare
nebulizzeremmo,nebulizzare
nebulizzereste,nebulizzare
nebulizzerebbero,nebulizzare
nebulizzi,nebulizzare
nebulizzi,nebulizzare
nebulizzi,nebulizzare
nebulizziamo,nebulizzare
nebulizziate,nebulizzare
nebulizzino,nebulizzare
nebulizzassi,nebulizzare
nebulizzassi,nebulizzare
nebulizzasse,nebulizzare
nebulizzassimo,nebulizzare
nebulizzaste,nebulizzare
nebulizzassero,nebulizzare
nebulizza,nebulizzare
nebulizzare,nebulizzare
nebulizzi,nebulizzare
nebulizziamo,nebulizzare
nebulizzate,nebulizzare
nebulizzino,nebulizzare
nobilitarsi,nobilitarsi
nobilitandosi,nobilitarsi
nobilitantesi,nobilitarsi
nobilitato,nobilitarsi
nobilitatosi,nobilitarsi
nobilito,nobilitarsi
nobiliti,nobilitarsi
nobilita,nobilitarsi
nobilitiamo,nobilitarsi
nobilitate,nobilitarsi
nobilitano,nobilitarsi
nobilitavo,nobilitarsi
nobilitavi,nobilitarsi
nobilitava,nobilitarsi
nobilitavamo,nobilitarsi
nobilitavate,nobilitarsi
nobilitavano,nobilitarsi
nobilitai,nobilitarsi
nobilitasti,nobilitarsi
nobilitò,nobilitarsi
nobilitammo,nobilitarsi
nobilitaste,nobilitarsi
nobilitarono,nobilitarsi
nobiliterò,nobilitarsi
nobiliterai,nobilitarsi
nobiliterà,nobilitarsi
nobiliteremo,nobilitarsi
nobiliterete,nobilitarsi
nobiliteranno,nobilitarsi
nobiliterei,nobilitarsi
nobiliteresti,nobilitarsi
nobiliterebbe,nobilitarsi
nobiliteremmo,nobilitarsi
nobilitereste,nobilitarsi
nobiliterebbero,nobilitarsi
nobiliti,nobilitarsi
nobiliti,nobilitarsi
nobiliti,nobilitarsi
nobilitiamo,nobilitarsi
nobilitiate,nobilitarsi
nobilitino,nobilitarsi
nobilitassi,nobilitarsi
nobilitassi,nobilitarsi
nobilitasse,nobilitarsi
nobilitassimo,nobilitarsi
nobilitaste,nobilitarsi
nobilitassero,nobilitarsi
nobilitati,nobilitarsi
nobilitare,nobilitarsi
nobilitarti,nobilitarsi
nobiliti,nobilitarsi
nobilitiamoci,nobilitarsi
nobilitatevi,nobilitarsi
nobilitino,nobilitarsi
naverare,naverare
naverando,naverare
naverante,naverare
naverato,naverare
navero,naverare
naveri,naverare
navera,naverare
naveriamo,naverare
naverate,naverare
naverano,naverare
naveravo,naverare
naveravi,naverare
naverava,naverare
naveravamo,naverare
naveravate,naverare
naveravano,naverare
naverai,naverare
naverasti,naverare
naverò,naverare
naverammo,naverare
naveraste,naverare
naverarono,naverare
navererò,naverare
navererai,naverare
navererà,naverare
navereremo,naverare
navererete,naverare
navereranno,naverare
navererei,naverare
navereresti,naverare
navererebbe,naverare
navereremmo,naverare
naverereste,naverare
navererebbero,naverare
naveri,naverare
naveri,naverare
naveri,naverare
naveriamo,naverare
naveriate,naverare
naverino,naverare
naverassi,naverare
naverassi,naverare
naverasse,naverare
naverassimo,naverare
naveraste,naverare
naverassero,naverare
navera,naverare
naverare,naverare
naveri,naverare
naveriamo,naverare
naverate,naverare
naverino,naverare
naturaleggiare,naturaleggiare
naturaleggiando,naturaleggiare
naturaleggiante,naturaleggiare
naturaleggiato,naturaleggiare
naturaleggio,naturaleggiare
naturaleggi,naturaleggiare
naturaleggia,naturaleggiare
naturaleggiamo,naturaleggiare
naturaleggiate,naturaleggiare
naturaleggiano,naturaleggiare
naturaleggiavo,naturaleggiare
naturaleggiavi,naturaleggiare
naturaleggiava,naturaleggiare
naturaleggiavamo,naturaleggiare
naturaleggiavate,naturaleggiare
naturaleggiavano,naturaleggiare
naturaleggiai,naturaleggiare
naturaleggiasti,naturaleggiare
naturaleggiò,naturaleggiare
naturaleggiammo,naturaleggiare
naturaleggiaste,naturaleggiare
naturaleggiarono,naturaleggiare
naturaleggerò,naturaleggiare
naturaleggerai,naturaleggiare
naturaleggerà,naturaleggiare
naturaleggeremo,naturaleggiare
naturaleggerete,naturaleggiare
naturaleggeranno,naturaleggiare
naturaleggerei,naturaleggiare
naturaleggeresti,naturaleggiare
naturaleggerebbe,naturaleggiare
naturaleggeremmo,naturaleggiare
naturaleggereste,naturaleggiare
naturaleggerebbero,naturaleggiare
naturaleggi,naturaleggiare
naturaleggi,naturaleggiare
naturaleggi,naturaleggiare
naturaleggiamo,naturaleggiare
naturaleggiate,naturaleggiare
naturaleggino,naturaleggiare
naturaleggiassi,naturaleggiare
naturaleggiassi,naturaleggiare
naturaleggiasse,naturaleggiare
naturaleggiassimo,naturaleggiare
naturaleggiaste,naturaleggiare
naturaleggiassero,naturaleggiare
naturaleggia,naturaleggiare
naturaleggiare,naturaleggiare
naturaleggi,naturaleggiare
naturaleggiamo,naturaleggiare
naturaleggiate,naturaleggiare
naturaleggino,naturaleggiare
nutrirsi,nutrirsi
nutrendosi,nutrirsi
nutrentesi,nutrirsi
nutrito,nutrirsi
nutritosi,nutrirsi
nutrisco,nutrirsi
nutrisci,nutrirsi
nutrisce,nutrirsi
nutriamo,nutrirsi
nutrite,nutrirsi
nutriscono,nutrirsi
nutrivo,nutrirsi
nutrivi,nutrirsi
nutriva,nutrirsi
nutrivamo,nutrirsi
nutrivate,nutrirsi
nutrivano,nutrirsi
nutrii,nutrirsi
nutristi,nutrirsi
nutrì,nutrirsi
nutrimmo,nutrirsi
nutriste,nutrirsi
nutrirono,nutrirsi
nutrirò,nutrirsi
nutrirai,nutrirsi
nutrirà,nutrirsi
nutriremo,nutrirsi
nutrirete,nutrirsi
nutriranno,nutrirsi
nutrirei,nutrirsi
nutriresti,nutrirsi
nutrirebbe,nutrirsi
nutriremmo,nutrirsi
nutrireste,nutrirsi
nutrirebbero,nutrirsi
nutrisca,nutrirsi
nutrisca,nutrirsi
nutrisca,nutrirsi
nutriamo,nutrirsi
nutriate,nutrirsi
nutriscano,nutrirsi
nutrissi,nutrirsi
nutrissi,nutrirsi
nutrisse,nutrirsi
nutrissimo,nutrirsi
nutriste,nutrirsi
nutrissero,nutrirsi
nutrisciti,nutrirsi
nutrire,nutrirsi
nutrirti,nutrirsi
nutrisca,nutrirsi
nutriamoci,nutrirsi
nutritevi,nutrirsi
nutriscano,nutrirsi
nitrare,nitrare
nitrando,nitrare
nitrante,nitrare
nitrato,nitrare
nitro,nitrare
nitri,nitrare
nitra,nitrare
nitriamo,nitrare
nitrate,nitrare
nitrano,nitrare
nitravo,nitrare
nitravi,nitrare
nitrava,nitrare
nitravamo,nitrare
nitravate,nitrare
nitravano,nitrare
nitrai,nitrare
nitrasti,nitrare
nitrò,nitrare
nitrammo,nitrare
nitraste,nitrare
nitrarono,nitrare
nitrerò,nitrare
nitrerai,nitrare
nitrerà,nitrare
nitreremo,nitrare
nitrerete,nitrare
nitreranno,nitrare
nitrerei,nitrare
nitreresti,nitrare
nitrerebbe,nitrare
nitreremmo,nitrare
nitrereste,nitrare
nitrerebbero,nitrare
nitri,nitrare
nitri,nitrare
nitri,nitrare
nitriamo,nitrare
nitriate,nitrare
nitrino,nitrare
nitrassi,nitrare
nitrassi,nitrare
nitrasse,nitrare
nitrassimo,nitrare
nitraste,nitrare
nitrassero,nitrare
nitra,nitrare
nitrare,nitrare
nitri,nitrare
nitriamo,nitrare
nitrate,nitrare
nitrino,nitrare
nitrificare,nitrificare
nitrificando,nitrificare
nitrificante,nitrificare
nitrificato,nitrificare
nitrifico,nitrificare
nitrifichi,nitrificare
nitrifica,nitrificare
nitrifichiamo,nitrificare
nitrificate,nitrificare
nitrificano,nitrificare
nitrificavo,nitrificare
nitrificavi,nitrificare
nitrificava,nitrificare
nitrificavamo,nitrificare
nitrificavate,nitrificare
nitrificavano,nitrificare
nitrificai,nitrificare
nitrificasti,nitrificare
nitrificò,nitrificare
nitrificammo,nitrificare
nitrificaste,nitrificare
nitrificarono,nitrificare
nitrificherò,nitrificare
nitrificherai,nitrificare
nitrificherà,nitrificare
nitrificheremo,nitrificare
nitrificherete,nitrificare
nitrificheranno,nitrificare
nitrificherei,nitrificare
nitrificheresti,nitrificare
nitrificherebbe,nitrificare
nitrificheremmo,nitrificare
nitrifichereste,nitrificare
nitrificherebbero,nitrificare
nitrifichi,nitrificare
nitrifichi,nitrificare
nitrifichi,nitrificare
nitrifichiamo,nitrificare
nitrifichiate,nitrificare
nitrifichino,nitrificare
nitrificassi,nitrificare
nitrificassi,nitrificare
nitrificasse,nitrificare
nitrificassimo,nitrificare
nitrificaste,nitrificare
nitrificassero,nitrificare
nitrifica,nitrificare
nitrificare,nitrificare
nitrifichi,nitrificare
nitrifichiamo,nitrificare
nitrificate,nitrificare
nitrifichino,nitrificare
nomare,nomare
nomando,nomare
nomante,nomare
nomato,nomare
nomo,nomare
nomi,nomare
noma,nomare
nomiamo,nomare
nomate,nomare
nomano,nomare
nomavo,nomare
nomavi,nomare
nomava,nomare
nomavamo,nomare
nomavate,nomare
nomavano,nomare
nomai,nomare
nomasti,nomare
nomò,nomare
nomammo,nomare
nomaste,nomare
nomarono,nomare
nomerò,nomare
nomerai,nomare
nomerà,nomare
nomeremo,nomare
nomerete,nomare
nomeranno,nomare
nomerei,nomare
nomeresti,nomare
nomerebbe,nomare
nomeremmo,nomare
nomereste,nomare
nomerebbero,nomare
nomi,nomare
nomi,nomare
nomi,nomare
nomiamo,nomare
nomiate,nomare
nomino,nomare
nomassi,nomare
nomassi,nomare
nomasse,nomare
nomassimo,nomare
nomaste,nomare
nomassero,nomare
noma,nomare
nomare,nomare
nomi,nomare
nomiamo,nomare
nomate,nomare
nomino,nomare
nuocere,nuocere
nuocendo,nuocere
nocendo,nuocere
nuocente,nuocere
nocente,nuocere
nuociuto,nuocere
nociuto,nuocere
nuoccio,nuocere
noccio,nuocere
nuoci,nuocere
nuoce,nuocere
nociamo,nuocere
nuocete,nuocere
nocete,nuocere
nuocciono,nuocere
nocciono,nuocere
nuocevo,nuocere
nuocevi,nuocere
nuoceva,nuocere
nuocevamo,nuocere
nuocevate,nuocere
nuocevano,nuocere
nocqui,nuocere
nuocesti,nuocere
nocque,nuocere
nuocemmo,nuocere
nuoceste,nuocere
nocquero,nuocere
nuocerò,nuocere
nocerò,nuocere
nuocerai,nuocere
nocerai,nuocere
nuocerà,nuocere
nocerà,nuocere
noceremo,nuocere
nuocerete,nuocere
nocerete,nuocere
nuoceranno,nuocere
noceranno,nuocere
nuocerei,nuocere
nocerei,nuocere
nuoceresti,nuocere
noceresti,nuocere
nuocerebbe,nuocere
nocerebbe,nuocere
noceremmo,nuocere
nuocereste,nuocere
nocereste,nuocere
nuocerebbero,nuocere
nocerebbero,nuocere
nuoccia,nuocere
noccia,nuocere
nuoccia,nuocere
noccia,nuocere
nuoccia,nuocere
noccia,nuocere
nuociamo,nuocere
nuociate,nuocere
nuocciano,nuocere
nocciano,nuocere
nuocessi,nuocere
nuocessi,nuocere
nuocesse,nuocere
nuocessimo,nuocere
nuoceste,nuocere
nuocessero,nuocere
nuoci,nuocere
nuocere,nuocere
nuoccia,nuocere
noccia,nuocere
nociamo,nuocere
nuocete,nuocere
nocete,nuocere
nuocciano,nuocere
nocciano,nuocere
negligere,negligere
negligendo,negligere
negligente,negligere
negletto,negligere
negligo,negligere
negligi,negligere
neglige,negligere
negligiamo,negligere
negligete,negligere
negligono,negligere
negligevo,negligere
negligevi,negligere
negligeva,negligere
negligevamo,negligere
negligevate,negligere
negligevano,negligere
neglessi,negligere
negligesti,negligere
neglesse,negligere
negligemmo,negligere
negligeste,negligere
neglessero,negligere
negligerò,negligere
negligerai,negligere
negligerà,negligere
negligeremo,negligere
negligerete,negligere
negligeranno,negligere
negligerei,negligere
negligeresti,negligere
negligerebbe,negligere
negligeremmo,negligere
negligereste,negligere
negligerebbero,negligere
&#8212;,negligere
&#8212;,negligere
&#8212;,negligere
&#8212;,negligere
&#8212;,negligere
&#8212;,negligere
negligessi,negligere
negligessi,negligere
negligesse,negligere
negligessimo,negligere
negligeste,negligere
negligessero,negligere
&#8212;,negligere
&#8212;,negligere
&#8212;,negligere
&#8212;,negligere
&#8212;,negligere
noleggiare,noleggiare
noleggiando,noleggiare
noleggiante,noleggiare
noleggiato,noleggiare
noleggio,noleggiare
noleggi,noleggiare
noleggia,noleggiare
noleggiamo,noleggiare
noleggiate,noleggiare
noleggiano,noleggiare
noleggiavo,noleggiare
noleggiavi,noleggiare
noleggiava,noleggiare
noleggiavamo,noleggiare
noleggiavate,noleggiare
noleggiavano,noleggiare
noleggiai,noleggiare
noleggiasti,noleggiare
noleggiò,noleggiare
noleggiammo,noleggiare
noleggiaste,noleggiare
noleggiarono,noleggiare
noleggerò,noleggiare
noleggerai,noleggiare
noleggerà,noleggiare
noleggeremo,noleggiare
noleggerete,noleggiare
noleggeranno,noleggiare
noleggerei,noleggiare
noleggeresti,noleggiare
noleggerebbe,noleggiare
noleggeremmo,noleggiare
noleggereste,noleggiare
noleggerebbero,noleggiare
noleggi,noleggiare
noleggi,noleggiare
noleggi,noleggiare
noleggiamo,noleggiare
noleggiate,noleggiare
noleggino,noleggiare
noleggiassi,noleggiare
noleggiassi,noleggiare
noleggiasse,noleggiare
noleggiassimo,noleggiare
noleggiaste,noleggiare
noleggiassero,noleggiare
noleggia,noleggiare
noleggiare,noleggiare
noleggi,noleggiare
noleggiamo,noleggiare
noleggiate,noleggiare
noleggino,noleggiare
noiare,noiare
noiando,noiare
noiante,noiare
noiato,noiare
noio,noiare
noi,noiare
noia,noiare
noiamo,noiare
noiate,noiare
noiano,noiare
noiavo,noiare
noiavi,noiare
noiava,noiare
noiavamo,noiare
noiavate,noiare
noiavano,noiare
noiai,noiare
noiasti,noiare
noiò,noiare
noiammo,noiare
noiaste,noiare
noiarono,noiare
noierò,noiare
noierai,noiare
noierà,noiare
noieremo,noiare
noierete,noiare
noieranno,noiare
noierei,noiare
noieresti,noiare
noierebbe,noiare
noieremmo,noiare
noiereste,noiare
noierebbero,noiare
noi,noiare
noi,noiare
noi,noiare
noiamo,noiare
noiate,noiare
noino,noiare
noiassi,noiare
noiassi,noiare
noiasse,noiare
noiassimo,noiare
noiaste,noiare
noiassero,noiare
noia,noiare
noiare,noiare
noi,noiare
noiamo,noiare
noiate,noiare
noino,noiare
notiziare,notiziare
notiziando,notiziare
notiziante,notiziare
notiziato,notiziare
notizio,notiziare
notizi,notiziare
notizia,notiziare
notiziamo,notiziare
notiziate,notiziare
notiziano,notiziare
notiziavo,notiziare
notiziavi,notiziare
notiziava,notiziare
notiziavamo,notiziare
notiziavate,notiziare
notiziavano,notiziare
notiziai,notiziare
notiziasti,notiziare
notiziò,notiziare
notiziammo,notiziare
notiziaste,notiziare
notiziarono,notiziare
notizierò,notiziare
notizierai,notiziare
notizierà,notiziare
notizieremo,notiziare
notizierete,notiziare
notizieranno,notiziare
notizierei,notiziare
notizieresti,notiziare
notizierebbe,notiziare
notizieremmo,notiziare
notiziereste,notiziare
notizierebbero,notiziare
notizi,notiziare
notizi,notiziare
notizi,notiziare
notiziamo,notiziare
notiziate,notiziare
notizino,notiziare
notiziassi,notiziare
notiziassi,notiziare
notiziasse,notiziare
notiziassimo,notiziare
notiziaste,notiziare
notiziassero,notiziare
notizia,notiziare
notiziare,notiziare
notizi,notiziare
notiziamo,notiziare
notiziate,notiziare
notizino,notiziare
negativizzarsi,negativizzarsi
negativizzandosi,negativizzarsi
negativizzantesi,negativizzarsi
negativizzato,negativizzarsi
negativizzatosi,negativizzarsi
negativizzo,negativizzarsi
negativizzi,negativizzarsi
negativizza,negativizzarsi
negativizziamo,negativizzarsi
negativizzate,negativizzarsi
negativizzano,negativizzarsi
negativizzavo,negativizzarsi
negativizzavi,negativizzarsi
negativizzava,negativizzarsi
negativizzavamo,negativizzarsi
negativizzavate,negativizzarsi
negativizzavano,negativizzarsi
negativizzai,negativizzarsi
negativizzasti,negativizzarsi
negativizzò,negativizzarsi
negativizzammo,negativizzarsi
negativizzaste,negativizzarsi
negativizzarono,negativizzarsi
negativizzerò,negativizzarsi
negativizzerai,negativizzarsi
negativizzerà,negativizzarsi
negativizzeremo,negativizzarsi
negativizzerete,negativizzarsi
negativizzeranno,negativizzarsi
negativizzerei,negativizzarsi
negativizzeresti,negativizzarsi
negativizzerebbe,negativizzarsi
negativizzeremmo,negativizzarsi
negativizzereste,negativizzarsi
negativizzerebbero,negativizzarsi
negativizzi,negativizzarsi
negativizzi,negativizzarsi
negativizzi,negativizzarsi
negativizziamo,negativizzarsi
negativizziate,negativizzarsi
negativizzino,negativizzarsi
negativizzassi,negativizzarsi
negativizzassi,negativizzarsi
negativizzasse,negativizzarsi
negativizzassimo,negativizzarsi
negativizzaste,negativizzarsi
negativizzassero,negativizzarsi
negativizzati,negativizzarsi
negativizzare,negativizzarsi
negativizzarti,negativizzarsi
negativizzi,negativizzarsi
negativizziamoci,negativizzarsi
negativizzatevi,negativizzarsi
negativizzino,negativizzarsi
narrare,narrare
narrando,narrare
narrante,narrare
narrato,narrare
narro,narrare
narri,narrare
narra,narrare
narriamo,narrare
narrate,narrare
narrano,narrare
narravo,narrare
narravi,narrare
narrava,narrare
narravamo,narrare
narravate,narrare
narravano,narrare
narrai,narrare
narrasti,narrare
narrò,narrare
narrammo,narrare
narraste,narrare
narrarono,narrare
narrerò,narrare
narrerai,narrare
narrerà,narrare
narreremo,narrare
narrerete,narrare
narreranno,narrare
narrerei,narrare
narreresti,narrare
narrerebbe,narrare
narreremmo,narrare
narrereste,narrare
narrerebbero,narrare
narri,narrare
narri,narrare
narri,narrare
narriamo,narrare
narriate,narrare
narrino,narrare
narrassi,narrare
narrassi,narrare
narrasse,narrare
narrassimo,narrare
narraste,narrare
narrassero,narrare
narra,narrare
narrare,narrare
narri,narrare
narriamo,narrare
narrate,narrare
narrino,narrare
notificare,notificare
notificando,notificare
notificante,notificare
notificato,notificare
notifico,notificare
notifichi,notificare
notifica,notificare
notifichiamo,notificare
notificate,notificare
notificano,notificare
notificavo,notificare
notificavi,notificare
notificava,notificare
notificavamo,notificare
notificavate,notificare
notificavano,notificare
notificai,notificare
notificasti,notificare
notificò,notificare
notificammo,notificare
notificaste,notificare
notificarono,notificare
notificherò,notificare
notificherai,notificare
notificherà,notificare
notificheremo,notificare
notificherete,notificare
notificheranno,notificare
notificherei,notificare
notificheresti,notificare
notificherebbe,notificare
notificheremmo,notificare
notifichereste,notificare
notificherebbero,notificare
notifichi,notificare
notifichi,notificare
notifichi,notificare
notifichiamo,notificare
notifichiate,notificare
notifichino,notificare
notificassi,notificare
notificassi,notificare
notificasse,notificare
notificassimo,notificare
notificaste,notificare
notificassero,notificare
notifica,notificare
notificare,notificare
notifichi,notificare
notifichiamo,notificare
notificate,notificare
notifichino,notificare
nudrire,nudrire
nudrendo,nudrire
nudrente,nudrire
nudrito,nudrire
nudrisco,nudrire
nudrisci,nudrire
nudrisce,nudrire
nudriamo,nudrire
nudrite,nudrire
nudriscono,nudrire
nudrivo,nudrire
nudrivi,nudrire
nudriva,nudrire
nudrivamo,nudrire
nudrivate,nudrire
nudrivano,nudrire
nudrii,nudrire
nudristi,nudrire
nudrì,nudrire
nudrimmo,nudrire
nudriste,nudrire
nudrirono,nudrire
nudrirò,nudrire
nudrirai,nudrire
nudrirà,nudrire
nudriremo,nudrire
nudrirete,nudrire
nudriranno,nudrire
nudrirei,nudrire
nudriresti,nudrire
nudrirebbe,nudrire
nudriremmo,nudrire
nudrireste,nudrire
nudrirebbero,nudrire
nudrisca,nudrire
nudrisca,nudrire
nudrisca,nudrire
nudriamo,nudrire
nudriate,nudrire
nudriscano,nudrire
nudrissi,nudrire
nudrissi,nudrire
nudrisse,nudrire
nudrissimo,nudrire
nudriste,nudrire
nudrissero,nudrire
nudrisci,nudrire
nudrire,nudrire
nudrisca,nudrire
nudriamo,nudrire
nudrite,nudrire
nudriscano,nudrire
naturalizzare,naturalizzare
naturalizzando,naturalizzare
naturalizzante,naturalizzare
naturalizzato,naturalizzare
naturalizzo,naturalizzare
naturalizzi,naturalizzare
naturalizza,naturalizzare
naturalizziamo,naturalizzare
naturalizzate,naturalizzare
naturalizzano,naturalizzare
naturalizzavo,naturalizzare
naturalizzavi,naturalizzare
naturalizzava,naturalizzare
naturalizzavamo,naturalizzare
naturalizzavate,naturalizzare
naturalizzavano,naturalizzare
naturalizzai,naturalizzare
naturalizzasti,naturalizzare
naturalizzò,naturalizzare
naturalizzammo,naturalizzare
naturalizzaste,naturalizzare
naturalizzarono,naturalizzare
naturalizzerò,naturalizzare
naturalizzerai,naturalizzare
naturalizzerà,naturalizzare
naturalizzeremo,naturalizzare
naturalizzerete,naturalizzare
naturalizzeranno,naturalizzare
naturalizzerei,naturalizzare
naturalizzeresti,naturalizzare
naturalizzerebbe,naturalizzare
naturalizzeremmo,naturalizzare
naturalizzereste,naturalizzare
naturalizzerebbero,naturalizzare
naturalizzi,naturalizzare
naturalizzi,naturalizzare
naturalizzi,naturalizzare
naturalizziamo,naturalizzare
naturalizziate,naturalizzare
naturalizzino,naturalizzare
naturalizzassi,naturalizzare
naturalizzassi,naturalizzare
naturalizzasse,naturalizzare
naturalizzassimo,naturalizzare
naturalizzaste,naturalizzare
naturalizzassero,naturalizzare
naturalizza,naturalizzare
naturalizzare,naturalizzare
naturalizzi,naturalizzare
naturalizziamo,naturalizzare
naturalizzate,naturalizzare
naturalizzino,naturalizzare
negoziare,negoziare
negoziando,negoziare
negoziante,negoziare
negoziato,negoziare
negozio,negoziare
negozi,negoziare
negozia,negoziare
negoziamo,negoziare
negoziate,negoziare
negoziano,negoziare
negoziavo,negoziare
negoziavi,negoziare
negoziava,negoziare
negoziavamo,negoziare
negoziavate,negoziare
negoziavano,negoziare
negoziai,negoziare
negoziasti,negoziare
negoziò,negoziare
negoziammo,negoziare
negoziaste,negoziare
negoziarono,negoziare
negozierò,negoziare
negozierai,negoziare
negozierà,negoziare
negozieremo,negoziare
negozierete,negoziare
negozieranno,negoziare
negozierei,negoziare
negozieresti,negoziare
negozierebbe,negoziare
negozieremmo,negoziare
negoziereste,negoziare
negozierebbero,negoziare
negozi,negoziare
negozi,negoziare
negozi,negoziare
negoziamo,negoziare
negoziate,negoziare
negozino,negoziare
negoziassi,negoziare
negoziassi,negoziare
negoziasse,negoziare
negoziassimo,negoziare
negoziaste,negoziare
negoziassero,negoziare
negozia,negoziare
negoziare,negoziare
negozi,negoziare
negoziamo,negoziare
negoziate,negoziare
negozino,negoziare
nauseare,nauseare
nauseando,nauseare
nauseante,nauseare
nauseato,nauseare
nauseo,nauseare
nausei,nauseare
nausea,nauseare
nauseiamo,nauseare
nauseate,nauseare
nauseano,nauseare
nauseavo,nauseare
nauseavi,nauseare
nauseava,nauseare
nauseavamo,nauseare
nauseavate,nauseare
nauseavano,nauseare
nauseai,nauseare
nauseasti,nauseare
nauseò,nauseare
nauseammo,nauseare
nauseaste,nauseare
nausearono,nauseare
nauseerò,nauseare
nauseerai,nauseare
nauseerà,nauseare
nauseeremo,nauseare
nauseerete,nauseare
nauseeranno,nauseare
nauseerei,nauseare
nauseeresti,nauseare
nauseerebbe,nauseare
nauseeremmo,nauseare
nauseereste,nauseare
nauseerebbero,nauseare
nausei,nauseare
nausei,nauseare
nausei,nauseare
nauseiamo,nauseare
nauseiate,nauseare
nauseino,nauseare
nauseassi,nauseare
nauseassi,nauseare
nauseasse,nauseare
nauseassimo,nauseare
nauseaste,nauseare
nauseassero,nauseare
nausea,nauseare
nauseare,nauseare
nausei,nauseare
nauseiamo,nauseare
nauseate,nauseare
nauseino,nauseare
negare,negare
negando,negare
negante,negare
negato,negare
nego,negare
(archaic),negare
neghi,negare
(archaic),negare
nega,negare
(archaic),negare
neghiamo,negare
negate,negare
negano,negare
(archaic),negare
negavo,negare
negavi,negare
negava,negare
negavamo,negare
negavate,negare
negavano,negare
negai,negare
negasti,negare
negò,negare
negammo,negare
negaste,negare
negarono,negare
negherò,negare
negherai,negare
negherà,negare
negheremo,negare
negherete,negare
negheranno,negare
negherei,negare
negheresti,negare
negherebbe,negare
negheremmo,negare
neghereste,negare
negherebbero,negare
neghi,negare
(archaic),negare
neghi,negare
(archaic),negare
neghi,negare
(archaic),negare
neghiamo,negare
neghiate,negare
neghino,negare
(archaic),negare
negassi,negare
negassi,negare
negasse,negare
negassimo,negare
negaste,negare
negassero,negare
nega,negare
(archaic),negare
neghi,negare
(archaic),negare
neghiamo,negare
negate,negare
neghino,negare
(archaic),negare
normalizzarsi,normalizzarsi
normalizzandosi,normalizzarsi
normalizzantesi,normalizzarsi
normalizzato,normalizzarsi
normalizzatosi,normalizzarsi
normalizzo,normalizzarsi
normalizzi,normalizzarsi
normalizza,normalizzarsi
normalizziamo,normalizzarsi
normalizzate,normalizzarsi
normalizzano,normalizzarsi
normalizzavo,normalizzarsi
normalizzavi,normalizzarsi
normalizzava,normalizzarsi
normalizzavamo,normalizzarsi
normalizzavate,normalizzarsi
normalizzavano,normalizzarsi
normalizzai,normalizzarsi
normalizzasti,normalizzarsi
normalizzò,normalizzarsi
normalizzammo,normalizzarsi
normalizzaste,normalizzarsi
normalizzarono,normalizzarsi
normalizzerò,normalizzarsi
normalizzerai,normalizzarsi
normalizzerà,normalizzarsi
normalizzeremo,normalizzarsi
normalizzerete,normalizzarsi
normalizzeranno,normalizzarsi
normalizzerei,normalizzarsi
normalizzeresti,normalizzarsi
normalizzerebbe,normalizzarsi
normalizzeremmo,normalizzarsi
normalizzereste,normalizzarsi
normalizzerebbero,normalizzarsi
normalizzi,normalizzarsi
normalizzi,normalizzarsi
normalizzi,normalizzarsi
normalizziamo,normalizzarsi
normalizziate,normalizzarsi
normalizzino,normalizzarsi
normalizzassi,normalizzarsi
normalizzassi,normalizzarsi
normalizzasse,normalizzarsi
normalizzassimo,normalizzarsi
normalizzaste,normalizzarsi
normalizzassero,normalizzarsi
normalizzati,normalizzarsi
normalizzare,normalizzarsi
normalizzarti,normalizzarsi
normalizzi,normalizzarsi
normalizziamoci,normalizzarsi
normalizzatevi,normalizzarsi
normalizzino,normalizzarsi
notomizzare,notomizzare
notomizzando,notomizzare
notomizzante,notomizzare
notomizzato,notomizzare
notomizzo,notomizzare
notomizzi,notomizzare
notomizza,notomizzare
notomizziamo,notomizzare
notomizzate,notomizzare
notomizzano,notomizzare
notomizzavo,notomizzare
notomizzavi,notomizzare
notomizzava,notomizzare
notomizzavamo,notomizzare
notomizzavate,notomizzare
notomizzavano,notomizzare
notomizzai,notomizzare
notomizzasti,notomizzare
notomizzò,notomizzare
notomizzammo,notomizzare
notomizzaste,notomizzare
notomizzarono,notomizzare
notomizzerò,notomizzare
notomizzerai,notomizzare
notomizzerà,notomizzare
notomizzeremo,notomizzare
notomizzerete,notomizzare
notomizzeranno,notomizzare
notomizzerei,notomizzare
notomizzeresti,notomizzare
notomizzerebbe,notomizzare
notomizzeremmo,notomizzare
notomizzereste,notomizzare
notomizzerebbero,notomizzare
notomizzi,notomizzare
notomizzi,notomizzare
notomizzi,notomizzare
notomizziamo,notomizzare
notomizziate,notomizzare
notomizzino,notomizzare
notomizzassi,notomizzare
notomizzassi,notomizzare
notomizzasse,notomizzare
notomizzassimo,notomizzare
notomizzaste,notomizzare
notomizzassero,notomizzare
notomizza,notomizzare
notomizzare,notomizzare
notomizzi,notomizzare
notomizziamo,notomizzare
notomizzate,notomizzare
notomizzino,notomizzare
natare,natare
natando,natare
natante,natare
natato,natare
nato,natare
nati,natare
nata,natare
natiamo,natare
natate,natare
natano,natare
natavo,natare
natavi,natare
natava,natare
natavamo,natare
natavate,natare
natavano,natare
natai,natare
natasti,natare
natò,natare
natammo,natare
nataste,natare
natarono,natare
naterò,natare
naterai,natare
naterà,natare
nateremo,natare
naterete,natare
nateranno,natare
naterei,natare
nateresti,natare
naterebbe,natare
nateremmo,natare
natereste,natare
naterebbero,natare
nati,natare
nati,natare
nati,natare
natiamo,natare
natiate,natare
natino,natare
natassi,natare
natassi,natare
natasse,natare
natassimo,natare
nataste,natare
natassero,natare
nata,natare
natare,natare
nati,natare
natiamo,natare
natate,natare
natino,natare
necrosare,necrosare
necrosando,necrosare
necrosante,necrosare
necrosato,necrosare
necroso,necrosare
necrosi,necrosare
necrosa,necrosare
necrosiamo,necrosare
necrosate,necrosare
necrosano,necrosare
necrosavo,necrosare
necrosavi,necrosare
necrosava,necrosare
necrosavamo,necrosare
necrosavate,necrosare
necrosavano,necrosare
necrosai,necrosare
necrosasti,necrosare
necrosò,necrosare
necrosammo,necrosare
necrosaste,necrosare
necrosarono,necrosare
necroserò,necrosare
necroserai,necrosare
necroserà,necrosare
necroseremo,necrosare
necroserete,necrosare
necroseranno,necrosare
necroserei,necrosare
necroseresti,necrosare
necroserebbe,necrosare
necroseremmo,necrosare
necrosereste,necrosare
necroserebbero,necrosare
necrosi,necrosare
necrosi,necrosare
necrosi,necrosare
necrosiamo,necrosare
necrosiate,necrosare
necrosino,necrosare
necrosassi,necrosare
necrosassi,necrosare
necrosasse,necrosare
necrosassimo,necrosare
necrosaste,necrosare
necrosassero,necrosare
necrosa,necrosare
necrosare,necrosare
necrosi,necrosare
necrosiamo,necrosare
necrosate,necrosare
necrosino,necrosare
necrotizzare,necrotizzare
necrotizzando,necrotizzare
necrotizzante,necrotizzare
necrotizzato,necrotizzare
necrotizzo,necrotizzare
necrotizzi,necrotizzare
necrotizza,necrotizzare
necrotizziamo,necrotizzare
necrotizzate,necrotizzare
necrotizzano,necrotizzare
necrotizzavo,necrotizzare
necrotizzavi,necrotizzare
necrotizzava,necrotizzare
necrotizzavamo,necrotizzare
necrotizzavate,necrotizzare
necrotizzavano,necrotizzare
necrotizzai,necrotizzare
necrotizzasti,necrotizzare
necrotizzò,necrotizzare
necrotizzammo,necrotizzare
necrotizzaste,necrotizzare
necrotizzarono,necrotizzare
necrotizzerò,necrotizzare
necrotizzerai,necrotizzare
necrotizzerà,necrotizzare
necrotizzeremo,necrotizzare
necrotizzerete,necrotizzare
necrotizzeranno,necrotizzare
necrotizzerei,necrotizzare
necrotizzeresti,necrotizzare
necrotizzerebbe,necrotizzare
necrotizzeremmo,necrotizzare
necrotizzereste,necrotizzare
necrotizzerebbero,necrotizzare
necrotizzi,necrotizzare
necrotizzi,necrotizzare
necrotizzi,necrotizzare
necrotizziamo,necrotizzare
necrotizziate,necrotizzare
necrotizzino,necrotizzare
necrotizzassi,necrotizzare
necrotizzassi,necrotizzare
necrotizzasse,necrotizzare
necrotizzassimo,necrotizzare
necrotizzaste,necrotizzare
necrotizzassero,necrotizzare
necrotizza,necrotizzare
necrotizzare,necrotizzare
necrotizzi,necrotizzare
necrotizziamo,necrotizzare
necrotizzate,necrotizzare
necrotizzino,necrotizzare
nidificare,nidificare
nidificando,nidificare
nidificante,nidificare
nidificato,nidificare
nidifico,nidificare
nidifichi,nidificare
nidifica,nidificare
nidifichiamo,nidificare
nidificate,nidificare
nidificano,nidificare
nidificavo,nidificare
nidificavi,nidificare
nidificava,nidificare
nidificavamo,nidificare
nidificavate,nidificare
nidificavano,nidificare
nidificai,nidificare
nidificasti,nidificare
nidificò,nidificare
nidificammo,nidificare
nidificaste,nidificare
nidificarono,nidificare
nidificherò,nidificare
nidificherai,nidificare
nidificherà,nidificare
nidificheremo,nidificare
nidificherete,nidificare
nidificheranno,nidificare
nidificherei,nidificare
nidificheresti,nidificare
nidificherebbe,nidificare
nidificheremmo,nidificare
nidifichereste,nidificare
nidificherebbero,nidificare
nidifichi,nidificare
nidifichi,nidificare
nidifichi,nidificare
nidifichiamo,nidificare
nidifichiate,nidificare
nidifichino,nidificare
nidificassi,nidificare
nidificassi,nidificare
nidificasse,nidificare
nidificassimo,nidificare
nidificaste,nidificare
nidificassero,nidificare
nidifica,nidificare
nidificare,nidificare
nidifichi,nidificare
nidifichiamo,nidificare
nidificate,nidificare
nidifichino,nidificare
nodrire,nodrire
nodrendo,nodrire
nodrente,nodrire
nodrito,nodrire
nodrisco,nodrire
nodrisci,nodrire
nodrisce,nodrire
nodriamo,nodrire
nodrite,nodrire
nodriscono,nodrire
nodrivo,nodrire
nodrivi,nodrire
nodriva,nodrire
nodrivamo,nodrire
nodrivate,nodrire
nodrivano,nodrire
nodrii,nodrire
nodristi,nodrire
nodrì,nodrire
nodrimmo,nodrire
nodriste,nodrire
nodrirono,nodrire
nodrirò,nodrire
nodrirai,nodrire
nodrirà,nodrire
nodriremo,nodrire
nodrirete,nodrire
nodriranno,nodrire
nodrirei,nodrire
nodriresti,nodrire
nodrirebbe,nodrire
nodriremmo,nodrire
nodrireste,nodrire
nodrirebbero,nodrire
nodrisca,nodrire
nodrisca,nodrire
nodrisca,nodrire
nodriamo,nodrire
nodriate,nodrire
nodriscano,nodrire
nodrissi,nodrire
nodrissi,nodrire
nodrisse,nodrire
nodrissimo,nodrire
nodriste,nodrire
nodrissero,nodrire
nodrisci,nodrire
nodrire,nodrire
nodrisca,nodrire
nodriamo,nodrire
nodrite,nodrire
nodriscano,nodrire
nazionalizzare,nazionalizzare
nazionalizzando,nazionalizzare
nazionalizzante,nazionalizzare
nazionalizzato,nazionalizzare
nazionalizzo,nazionalizzare
nazionalizzi,nazionalizzare
nazionalizza,nazionalizzare
nazionalizziamo,nazionalizzare
nazionalizzate,nazionalizzare
nazionalizzano,nazionalizzare
nazionalizzavo,nazionalizzare
nazionalizzavi,nazionalizzare
nazionalizzava,nazionalizzare
nazionalizzavamo,nazionalizzare
nazionalizzavate,nazionalizzare
nazionalizzavano,nazionalizzare
nazionalizzai,nazionalizzare
nazionalizzasti,nazionalizzare
nazionalizzò,nazionalizzare
nazionalizzammo,nazionalizzare
nazionalizzaste,nazionalizzare
nazionalizzarono,nazionalizzare
nazionalizzerò,nazionalizzare
nazionalizzerai,nazionalizzare
nazionalizzerà,nazionalizzare
nazionalizzeremo,nazionalizzare
nazionalizzerete,nazionalizzare
nazionalizzeranno,nazionalizzare
nazionalizzerei,nazionalizzare
nazionalizzeresti,nazionalizzare
nazionalizzerebbe,nazionalizzare
nazionalizzeremmo,nazionalizzare
nazionalizzereste,nazionalizzare
nazionalizzerebbero,nazionalizzare
nazionalizzi,nazionalizzare
nazionalizzi,nazionalizzare
nazionalizzi,nazionalizzare
nazionalizziamo,nazionalizzare
nazionalizziate,nazionalizzare
nazionalizzino,nazionalizzare
nazionalizzassi,nazionalizzare
nazionalizzassi,nazionalizzare
nazionalizzasse,nazionalizzare
nazionalizzassimo,nazionalizzare
nazionalizzaste,nazionalizzare
nazionalizzassero,nazionalizzare
nazionalizza,nazionalizzare
nazionalizzare,nazionalizzare
nazionalizzi,nazionalizzare
nazionalizziamo,nazionalizzare
nazionalizzate,nazionalizzare
nazionalizzino,nazionalizzare
nuotare,nuotare
nuotando,nuotare
nuotante,nuotare
nuotato,nuotare
nuoto,nuotare
nuoti,nuotare
nuota,nuotare
nuotiamo,nuotare
nuotate,nuotare
nuotano,nuotare
nuotavo,nuotare
nuotavi,nuotare
nuotava,nuotare
nuotavamo,nuotare
nuotavate,nuotare
nuotavano,nuotare
nuotai,nuotare
nuotasti,nuotare
nuotò,nuotare
nuotammo,nuotare
nuotaste,nuotare
nuotarono,nuotare
nuoterò,nuotare
nuoterai,nuotare
nuoterà,nuotare
nuoteremo,nuotare
nuoterete,nuotare
nuoteranno,nuotare
nuoterei,nuotare
nuoteresti,nuotare
nuoterebbe,nuotare
nuoteremmo,nuotare
nuotereste,nuotare
nuoterebbero,nuotare
nuoti,nuotare
nuoti,nuotare
nuoti,nuotare
nuotiamo,nuotare
nuotiate,nuotare
nuotino,nuotare
nuotassi,nuotare
nuotassi,nuotare
nuotasse,nuotare
nuotassimo,nuotare
nuotaste,nuotare
nuotassero,nuotare
nuota,nuotare
nuotare,nuotare
nuoti,nuotare
nuotiamo,nuotare
nuotate,nuotare
nuotino,nuotare
nascondere,nascondere
nascondendo,nascondere
nascondente,nascondere
nascosto,nascondere
nascoso,nascondere
nascondo,nascondere
nascondi,nascondere
nasconde,nascondere
nascondiamo,nascondere
nascondete,nascondere
nascondono,nascondere
nascondevo,nascondere
nascondevi,nascondere
nascondeva,nascondere
nascondevamo,nascondere
nascondevate,nascondere
nascondevano,nascondere
nascosi,nascondere
nascondesti,nascondere
nascose,nascondere
nascondemmo,nascondere
nascondeste,nascondere
nascosero,nascondere
nasconderò,nascondere
nasconderai,nascondere
nasconderà,nascondere
nasconderemo,nascondere
nasconderete,nascondere
nasconderanno,nascondere
nasconderei,nascondere
nasconderesti,nascondere
nasconderebbe,nascondere
nasconderemmo,nascondere
nascondereste,nascondere
nasconderebbero,nascondere
nasconda,nascondere
nasconda,nascondere
nasconda,nascondere
nascondiamo,nascondere
nascondiate,nascondere
nascondano,nascondere
nascondessi,nascondere
nascondessi,nascondere
nascondesse,nascondere
nascondessimo,nascondere
nascondeste,nascondere
nascondessero,nascondere
nascondi,nascondere
nascondere,nascondere
nasconda,nascondere
nascondiamo,nascondere
nascondete,nascondere
nascondano,nascondere
nevare,nevare
nevando,nevare
nevante,nevare
nevato,nevare
&#8212;,nevare
&#8212;,nevare
neva,nevare
&#8212;,nevare
&#8212;,nevare
nevano,nevare
&#8212;,nevare
&#8212;,nevare
nevava,nevare
&#8212;,nevare
&#8212;,nevare
nevavano,nevare
&#8212;,nevare
&#8212;,nevare
nevò,nevare
&#8212;,nevare
&#8212;,nevare
nevarono,nevare
&#8212;,nevare
&#8212;,nevare
neverà,nevare
&#8212;,nevare
&#8212;,nevare
neveranno,nevare
&#8212;,nevare
&#8212;,nevare
neverebbe,nevare
&#8212;,nevare
&#8212;,nevare
neveranno,nevare
&#8212;,nevare
&#8212;,nevare
neva,nevare
&#8212;,nevare
&#8212;,nevare
nevano,nevare
&#8212;,nevare
&#8212;,nevare
nevasse,nevare
&#8212;,nevare
&#8212;,nevare
nevassero,nevare
&#8212;,nevare
nevi,nevare
&#8212;,nevare
&#8212;,nevare
nevano,nevare
nuclearizzare,nuclearizzare
nuclearizzando,nuclearizzare
nuclearizzante,nuclearizzare
nuclearizzato,nuclearizzare
nuclearizzo,nuclearizzare
nuclearizzi,nuclearizzare
nuclearizza,nuclearizzare
nuclearizziamo,nuclearizzare
nuclearizzate,nuclearizzare
nuclearizzano,nuclearizzare
nuclearizzavo,nuclearizzare
nuclearizzavi,nuclearizzare
nuclearizzava,nuclearizzare
nuclearizzavamo,nuclearizzare
nuclearizzavate,nuclearizzare
nuclearizzavano,nuclearizzare
nuclearizzai,nuclearizzare
nuclearizzasti,nuclearizzare
nuclearizzò,nuclearizzare
nuclearizzammo,nuclearizzare
nuclearizzaste,nuclearizzare
nuclearizzarono,nuclearizzare
nuclearizzerò,nuclearizzare
nuclearizzerai,nuclearizzare
nuclearizzerà,nuclearizzare
nuclearizzeremo,nuclearizzare
nuclearizzerete,nuclearizzare
nuclearizzeranno,nuclearizzare
nuclearizzerei,nuclearizzare
nuclearizzeresti,nuclearizzare
nuclearizzerebbe,nuclearizzare
nuclearizzeremmo,nuclearizzare
nuclearizzereste,nuclearizzare
nuclearizzerebbero,nuclearizzare
nuclearizzi,nuclearizzare
nuclearizzi,nuclearizzare
nuclearizzi,nuclearizzare
nuclearizziamo,nuclearizzare
nuclearizziate,nuclearizzare
nuclearizzino,nuclearizzare
nuclearizzassi,nuclearizzare
nuclearizzassi,nuclearizzare
nuclearizzasse,nuclearizzare
nuclearizzassimo,nuclearizzare
nuclearizzaste,nuclearizzare
nuclearizzassero,nuclearizzare
nuclearizza,nuclearizzare
nuclearizzare,nuclearizzare
nuclearizzi,nuclearizzare
nuclearizziamo,nuclearizzare
nuclearizzate,nuclearizzare
nuclearizzino,nuclearizzare
numerare,numerare
numerando,numerare
numerante,numerare
numerato,numerare
numero,numerare
numeri,numerare
numera,numerare
numeriamo,numerare
numerate,numerare
numerano,numerare
numeravo,numerare
numeravi,numerare
numerava,numerare
numeravamo,numerare
numeravate,numerare
numeravano,numerare
numerai,numerare
numerasti,numerare
numerò,numerare
numerammo,numerare
numeraste,numerare
numerarono,numerare
numererò,numerare
numererai,numerare
numererà,numerare
numereremo,numerare
numererete,numerare
numereranno,numerare
numererei,numerare
numereresti,numerare
numererebbe,numerare
numereremmo,numerare
numerereste,numerare
numererebbero,numerare
numeri,numerare
numeri,numerare
numeri,numerare
numeriamo,numerare
numeriate,numerare
numerino,numerare
numerassi,numerare
numerassi,numerare
numerasse,numerare
numerassimo,numerare
numeraste,numerare
numerassero,numerare
numera,numerare
numerare,numerare
numeri,numerare
numeriamo,numerare
numerate,numerare
numerino,numerare
nitrosare,nitrosare
nitrosando,nitrosare
nitrosante,nitrosare
nitrosato,nitrosare
nitroso,nitrosare
nitrosi,nitrosare
nitrosa,nitrosare
nitrosiamo,nitrosare
nitrosate,nitrosare
nitrosano,nitrosare
nitrosavo,nitrosare
nitrosavi,nitrosare
nitrosava,nitrosare
nitrosavamo,nitrosare
nitrosavate,nitrosare
nitrosavano,nitrosare
nitrosai,nitrosare
nitrosasti,nitrosare
nitrosò,nitrosare
nitrosammo,nitrosare
nitrosaste,nitrosare
nitrosarono,nitrosare
nitroserò,nitrosare
nitroserai,nitrosare
nitroserà,nitrosare
nitroseremo,nitrosare
nitroserete,nitrosare
nitroseranno,nitrosare
nitroserei,nitrosare
nitroseresti,nitrosare
nitroserebbe,nitrosare
nitroseremmo,nitrosare
nitrosereste,nitrosare
nitroserebbero,nitrosare
nitrosi,nitrosare
nitrosi,nitrosare
nitrosi,nitrosare
nitrosiamo,nitrosare
nitrosiate,nitrosare
nitrosino,nitrosare
nitrosassi,nitrosare
nitrosassi,nitrosare
nitrosasse,nitrosare
nitrosassimo,nitrosare
nitrosaste,nitrosare
nitrosassero,nitrosare
nitrosa,nitrosare
nitrosare,nitrosare
nitrosi,nitrosare
nitrosiamo,nitrosare
nitrosate,nitrosare
nitrosino,nitrosare
normalizzare,normalizzare
normalizzando,normalizzare
normalizzante,normalizzare
normalizzato,normalizzare
normalizzo,normalizzare
normalizzi,normalizzare
normalizza,normalizzare
normalizziamo,normalizzare
normalizzate,normalizzare
normalizzano,normalizzare
normalizzavo,normalizzare
normalizzavi,normalizzare
normalizzava,normalizzare
normalizzavamo,normalizzare
normalizzavate,normalizzare
normalizzavano,normalizzare
normalizzai,normalizzare
normalizzasti,normalizzare
normalizzò,normalizzare
normalizzammo,normalizzare
normalizzaste,normalizzare
normalizzarono,normalizzare
normalizzerò,normalizzare
normalizzerai,normalizzare
normalizzerà,normalizzare
normalizzeremo,normalizzare
normalizzerete,normalizzare
normalizzeranno,normalizzare
normalizzerei,normalizzare
normalizzeresti,normalizzare
normalizzerebbe,normalizzare
normalizzeremmo,normalizzare
normalizzereste,normalizzare
normalizzerebbero,normalizzare
normalizzi,normalizzare
normalizzi,normalizzare
normalizzi,normalizzare
normalizziamo,normalizzare
normalizziate,normalizzare
normalizzino,normalizzare
normalizzassi,normalizzare
normalizzassi,normalizzare
normalizzasse,normalizzare
normalizzassimo,normalizzare
normalizzaste,normalizzare
normalizzassero,normalizzare
normalizza,normalizzare
normalizzare,normalizzare
normalizzi,normalizzare
normalizziamo,normalizzare
normalizzate,normalizzare
normalizzino,normalizzare
navicare,navicare
navicando,navicare
navicante,navicare
navicato,navicare
navico,navicare
navichi,navicare
navica,navicare
navichiamo,navicare
navicate,navicare
navicano,navicare
navicavo,navicare
navicavi,navicare
navicava,navicare
navicavamo,navicare
navicavate,navicare
navicavano,navicare
navicai,navicare
navicasti,navicare
navicò,navicare
navicammo,navicare
navicaste,navicare
navicarono,navicare
navicherò,navicare
navicherai,navicare
navicherà,navicare
navicheremo,navicare
navicherete,navicare
navicheranno,navicare
navicherei,navicare
navicheresti,navicare
navicherebbe,navicare
navicheremmo,navicare
navichereste,navicare
navicherebbero,navicare
navichi,navicare
navichi,navicare
navichi,navicare
navichiamo,navicare
navichiate,navicare
navichino,navicare
navicassi,navicare
navicassi,navicare
navicasse,navicare
navicassimo,navicare
navicaste,navicare
navicassero,navicare
navica,navicare
navicare,navicare
navichi,navicare
navichiamo,navicare
navicate,navicare
navichino,navicare
naturalizzarsi,naturalizzarsi
naturalizzandosi,naturalizzarsi
naturalizzantesi,naturalizzarsi
naturalizzato,naturalizzarsi
naturalizzatosi,naturalizzarsi
naturalizzo,naturalizzarsi
naturalizzi,naturalizzarsi
naturalizza,naturalizzarsi
naturalizziamo,naturalizzarsi
naturalizzate,naturalizzarsi
naturalizzano,naturalizzarsi
naturalizzavo,naturalizzarsi
naturalizzavi,naturalizzarsi
naturalizzava,naturalizzarsi
naturalizzavamo,naturalizzarsi
naturalizzavate,naturalizzarsi
naturalizzavano,naturalizzarsi
naturalizzai,naturalizzarsi
naturalizzasti,naturalizzarsi
naturalizzò,naturalizzarsi
naturalizzammo,naturalizzarsi
naturalizzaste,naturalizzarsi
naturalizzarono,naturalizzarsi
naturalizzerò,naturalizzarsi
naturalizzerai,naturalizzarsi
naturalizzerà,naturalizzarsi
naturalizzeremo,naturalizzarsi
naturalizzerete,naturalizzarsi
naturalizzeranno,naturalizzarsi
naturalizzerei,naturalizzarsi
naturalizzeresti,naturalizzarsi
naturalizzerebbe,naturalizzarsi
naturalizzeremmo,naturalizzarsi
naturalizzereste,naturalizzarsi
naturalizzerebbero,naturalizzarsi
naturalizzi,naturalizzarsi
naturalizzi,naturalizzarsi
naturalizzi,naturalizzarsi
naturalizziamo,naturalizzarsi
naturalizziate,naturalizzarsi
naturalizzino,naturalizzarsi
naturalizzassi,naturalizzarsi
naturalizzassi,naturalizzarsi
naturalizzasse,naturalizzarsi
naturalizzassimo,naturalizzarsi
naturalizzaste,naturalizzarsi
naturalizzassero,naturalizzarsi
naturalizzati,naturalizzarsi
naturalizzare,naturalizzarsi
naturalizzarti,naturalizzarsi
naturalizzi,naturalizzarsi
naturalizziamoci,naturalizzarsi
naturalizzatevi,naturalizzarsi
naturalizzino,naturalizzarsi
nericare,nericare
nericando,nericare
nericante,nericare
nericato,nericare
nerico,nericare
nerichi,nericare
nerica,nericare
nerichiamo,nericare
nericate,nericare
nericano,nericare
nericavo,nericare
nericavi,nericare
nericava,nericare
nericavamo,nericare
nericavate,nericare
nericavano,nericare
nericai,nericare
nericasti,nericare
nericò,nericare
nericammo,nericare
nericaste,nericare
nericarono,nericare
nericherò,nericare
nericherai,nericare
nericherà,nericare
nericheremo,nericare
nericherete,nericare
nericheranno,nericare
nericherei,nericare
nericheresti,nericare
nericherebbe,nericare
nericheremmo,nericare
nerichereste,nericare
nericherebbero,nericare
nerichi,nericare
nerichi,nericare
nerichi,nericare
nerichiamo,nericare
nerichiate,nericare
nerichino,nericare
nericassi,nericare
nericassi,nericare
nericasse,nericare
nericassimo,nericare
nericaste,nericare
nericassero,nericare
nerica,nericare
nericare,nericare
nerichi,nericare
nerichiamo,nericare
nericate,nericare
nerichino,nericare
