conjugation,infinitive
wappare,wappare
wappando,wappare
wappante,wappare
wappato,wappare
wappo,wappare
wappi,wappare
wappa,wappare
wappiamo,wappare
wappate,wappare
wappano,wappare
wappavo,wappare
wappavi,wappare
wappava,wappare
wappavamo,wappare
wappavate,wappare
wappavano,wappare
wappai,wappare
wappasti,wappare
wappò,wappare
wappammo,wappare
wappaste,wappare
wapparono,wappare
wapperò,wappare
wapperai,wappare
wapperà,wappare
wapperemo,wappare
wapperete,wappare
wapperanno,wappare
wapperei,wappare
wapperesti,wappare
wapperebbe,wappare
wapperemmo,wappare
wappereste,wappare
wapperebbero,wappare
wappi,wappare
wappi,wappare
wappi,wappare
wappiamo,wappare
wappiate,wappare
wappino,wappare
wappassi,wappare
wappassi,wappare
wappasse,wappare
wappassimo,wappare
wappaste,wappare
wappassero,wappare
wappa,wappare
wappare,wappare
wappi,wappare
wappiamo,wappare
wappate,wappare
wappino,wappare
wikificare,wikificare
wikificando,wikificare
wikificante,wikificare
wikificato,wikificare
wikifico,wikificare
wikifichi,wikificare
wikifica,wikificare
wikifichiamo,wikificare
wikificate,wikificare
wikificano,wikificare
wikificavo,wikificare
wikificavi,wikificare
wikificava,wikificare
wikificavamo,wikificare
wikificavate,wikificare
wikificavano,wikificare
wikificai,wikificare
wikificasti,wikificare
wikificò,wikificare
wikificammo,wikificare
wikificaste,wikificare
wikificarono,wikificare
wikificherò,wikificare
wikificherai,wikificare
wikificherà,wikificare
wikificheremo,wikificare
wikificherete,wikificare
wikificheranno,wikificare
wikificherei,wikificare
wikificheresti,wikificare
wikificherebbe,wikificare
wikificheremmo,wikificare
wikifichereste,wikificare
wikificherebbero,wikificare
wikifichi,wikificare
wikifichi,wikificare
wikifichi,wikificare
wikifichiamo,wikificare
wikifichiate,wikificare
wikifichino,wikificare
wikificassi,wikificare
wikificassi,wikificare
wikificasse,wikificare
wikificassimo,wikificare
wikificaste,wikificare
wikificassero,wikificare
wikifica,wikificare
wikificare,wikificare
wikifichi,wikificare
wikifichiamo,wikificare
wikificate,wikificare
wikifichino,wikificare
